orderID,categoryName,lenghtCM,heightCM,widthCM,Volume,weightG,sellerCity,sellerState,sellerLat,sellerLng,shippingLimit,purchaseTime,timeLapse,customerCity,customerState,customerLat,customerLng,distance_in_km,freightValue,cost_per_KM
39d0be719247e3b3a38846ba810197ea,cool_stuff,17,26,12,5304,300,"santo angelo",RS,-28.281003423550747,-54.258283178397335,"2016-10-21 16:18:29","2016-10-04 16:02:18",17,santarem,PA,-2.417575154949091,-54.71288661845902,2874.1155213575726,32.01,0.01113733938741622
a3b12c57a19ac7a13e56c2387b30054e,fashion_bolsas_e_acessorios,20,2,25,1000,100,curitiba,PR,-25.418108900075318,-49.254933135403604,"2017-11-13 19:30:20","2017-10-27 19:15:26",17,fortaleza,CE,-3.7133554190951514,-38.59527923244273,2666.618507551482,25.65,0.009618923714570671
fc512d4792550a29d6b7941c38ab612e,relogios_presentes,19,8,14,2128,600,colombo,PR,-25.371298736141743,-49.18823376385825,"2017-05-11 23:32:46","2017-04-24 20:42:22",17,"sao luis",MA,-2.548406443647128,-44.24573679801306,2590.4069976885444,25.95,0.010017730813403276
81197e2ef0c78f09e8ffd8a87efaf57b,cama_mesa_banho,50,16,16,12800,700,"sao paulo",SP,-23.48770416180969,-46.41534043450283,"2017-12-15 09:11:23","2017-11-27 09:14:52",17,belem,PA,-1.4649796654765275,-48.48763846258198,2457.1271021817347,19.28,0.007846561939299309
81197e2ef0c78f09e8ffd8a87efaf57b,cama_mesa_banho,50,16,16,12800,950,"sao paulo",SP,-23.48770416180969,-46.41534043450283,"2017-12-15 09:11:23","2017-11-27 09:14:52",17,belem,PA,-1.4649796654765275,-48.48763846258198,2457.1271021817347,19.28,0.007846561939299309
bde06a769a934fd5e54ef3a8019a4e72,automotivo,35,20,20,14000,3350,guaruja,SP,-23.997778323619357,-46.2767638411045,"2018-01-04 17:51:12","2017-12-18 16:45:55",17,"sao luis",MA,-2.5085430466673553,-44.303019926805405,2397.082965873709,43.81,0.018276380343820002
6c1d2589bb92157989da84b6f7ac8ef6,beleza_saude,55,75,61,251625,30000,"sao paulo",SP,-23.58359782304825,-46.50714769338705,"2017-11-07 19:14:24","2017-10-21 18:59:42",17,caucaia,CE,-3.6933578054736826,-38.65947758132221,2365.0952468543264,184.98,0.0782124949284943
02504308041b6ad0a112b2b7159439ed,moveis_escritorio,57,56,22,70224,13350,itaquaquecetuba,SP,-23.482623440635415,-46.37448952833195,"2018-03-27 04:31:19","2018-03-09 10:11:51",17,fortaleza,CE,-3.7234404281565685,-38.47693909661432,2353.488138389328,52.85,0.022456029897889904
1cb6cfd9e6306cfe607017391834999a,fashion_calcados,22,12,33,8712,900,penapolis,SP,-21.426570046543283,-50.06791761043272,"2017-05-16 20:22:41","2017-04-29 20:09:24",17,fortaleza,CE,-3.797276610264443,-38.58371452603109,2318.009984864404,30.47,0.013144895923208198
1cb6cfd9e6306cfe607017391834999a,fashion_calcados,22,12,33,8712,1400,penapolis,SP,-21.426570046543283,-50.06791761043272,"2017-05-16 20:22:41","2017-04-29 20:09:24",17,fortaleza,CE,-3.797276610264443,-38.58371452603109,2318.009984864404,28.43,0.01226483068909777
3751767f4ddcfe9540bd8408a210a87e,bebes,35,5,25,4375,400,ibitinga,SP,-21.7664768468313,-48.83154737836604,"2018-03-26 20:56:21","2018-03-09 20:41:43",17,natal,RN,-5.864338395606093,-35.18923476586273,2295.9824171257023,50.85,0.02214738214923186
3aa41f0c241b0ef62147d849b02313be,instrumentos_musicais,60,16,11,10560,100,santos,SP,-23.93465945090488,-46.331065142884974,"2017-04-27 03:42:16","2017-04-09 15:26:33",17,"joao pessoa",PB,-7.101960317242725,-34.84236014348782,2235.4132570925863,24.84,0.011112039315856656
511a2c82e1860031d509e3d925c4b873,moveis_escritorio,53,52,17,46852,9725,itaquaquecetuba,SP,-23.482623440635415,-46.37448952833195,"2017-04-24 08:50:17","2017-04-06 19:52:25",17,"joao pessoa",PB,-7.0960752922557635,-34.84555898834324,2197.4388061531,25.61,0.011654476988523566
c5f6d3ac0511ed9303df3767bd834100,consoles_games,20,20,20,8000,600,"sao paulo",SP,-23.681542547319527,-46.70780575451552,"2017-11-14 09:26:20","2017-10-28 09:14:38",17,recife,PE,-8.049289725229384,-34.901552849847064,2143.9138800406013,27.42,0.012789692839472042
91a3c41404860e70eb6fbca545645af0,eletroportateis,35,35,40,49000,7600,limeira,SP,-22.564590914795993,-47.40315315223038,"2017-09-29 03:25:25","2017-09-11 18:07:07",17,"nova russas",CE,-4.718573972226268,-40.56079296286107,2114.817026432236,92.85,0.043904507500888104
e8dea63f68386b3d95962ffb4dc4aaea,automotivo,17,8,13,1768,75,"belo horizonte",MG,-19.878513898894187,-43.95694702879617,"2017-11-03 19:45:53","2017-10-17 19:26:08",17,belem,PA,-1.4381200036353377,-48.46516609521599,2106.685302556208,21.15,0.010039468151383136
e677b67c28dfc75969bbf0ff515c0983,moveis_escritorio,63,59,25,92925,16133,itaquaquecetuba,SP,-23.482623440635415,-46.37448952833195,"2018-06-06 08:30:35","2018-05-19 12:26:59",17,teresina,PI,-5.072148382612785,-42.79174259218988,2081.297670889874,64.88,0.03117285956134284
3c404e64aaee40b3b597aafff9795b4a,construcao_ferramentas_construcao,75,11,11,9075,50,"ribeirao preto",SP,-21.185944576067463,-47.81498292186677,"2018-04-30 20:55:28","2018-04-13 20:44:27",17,cocal,PI,-3.4733519871885465,-41.552137731754726,2081.151482057381,51.97,0.02497175263216476
5bd06bab48e0423fc35d1c236d48a6bb,beleza_saude,55,75,61,251625,30000,"sao paulo",SP,-23.58359782304825,-46.50714769338705,"2017-05-29 02:55:06","2017-05-11 19:17:49",17,escada,PE,-8.364231345619059,-35.24154113882144,2072.870001157639,248.54,0.11990139268801106
4ce01eeaa0d476f2aebfe6caae88d946,bebes,25,9,18,4050,850,"monteiro lobato",SP,-22.957006788724875,-45.838892673596476,"2017-09-13 04:35:53","2017-08-26 10:48:39",17,"jaboatao dos guararapes",PE,-8.113140872999963,-34.97289999999998,2015.8607898464293,27.09,0.013438427959136875
4b5fdd555b6aced1f150146b9c7a9e1d,fashion_calcados,22,12,33,8712,800,penapolis,SP,-21.426570046543283,-50.06791761043272,"2017-11-01 03:56:19","2017-10-14 13:59:48",17,garanhuns,PE,-8.908919056350562,-36.48022108771418,2011.6473226863002,28.99,0.014411074780885312
725cf8e9c24e679a8a5a32cb92c9ce1e,beleza_saude,55,75,61,251625,30000,"sao paulo",SP,-23.58359782304825,-46.50714769338705,"2017-06-25 21:15:16","2017-06-08 21:00:36",17,sanharo,PE,-8.363166291899267,-36.559087804887746,1995.1819743742826,258.28,0.12945185116811225
725cf8e9c24e679a8a5a32cb92c9ce1e,beleza_saude,55,75,61,251625,30000,"sao paulo",SP,-23.58359782304825,-46.50714769338705,"2017-06-25 21:15:16","2017-06-08 21:00:36",17,sanharo,PE,-8.363166291899267,-36.559087804887746,1995.1819743742826,239.14,0.11985874124338843
0eb7aec5fc39bddda0c24ee5cf824415,cama_mesa_banho,50,11,11,6050,1350,"sao paulo",SP,-23.48770416180969,-46.41534043450283,"2018-04-10 02:10:59","2018-03-23 11:39:18",17,maceio,AL,-9.656441569634511,-35.71199490093108,1911.2133366451942,25.31,0.013242896287249305
eba5bbb5b555fbe7c156f94220e4df2d,fashion_calcados,22,12,33,8712,1400,penapolis,SP,-21.426570046543283,-50.06791761043272,"2017-05-15 21:50:18","2017-04-28 21:40:27",17,tacaratu,PE,-9.106289690475828,-38.149796602331584,1870.2501418146555,29.45,0.015746556752791057
0cd74b0dbfef5f1f8dbdcb3128f0dc51,beleza_saude,25,12,19,5700,700,"sao luis",MA,-2.5460792339719513,-44.3089863702464,"2018-08-28 04:45:20","2018-08-10 19:49:22",17,aurilandia,GO,-16.678201199917385,-50.46366427849526,1708.136837630587,53.21,0.0311509001081022
fb31bfd260ee565cb546aab5a4a28803,moveis_escritorio,57,56,22,70224,13350,itaquaquecetuba,SP,-23.482623440635415,-46.37448952833195,"2018-08-16 23:25:08","2018-07-30 23:16:34",17,aracaju,SE,-10.97710746932889,-37.04448972344036,1704.6645235967796,72.64,0.04261249002046002
806d19127814e557e910ad0c90891886,brinquedos,38,12,35,15960,1800,"monte siao",MG,-22.42880507067007,-46.569550269431765,"2017-05-29 15:55:15","2017-05-12 15:39:49",17,aracaju,SE,-10.995108708420165,-37.05902455806738,1622.882075700883,38.02,0.02342745697254688
811d489212933883305dce687df36572,fashion_calcados,22,12,33,8712,1500,penapolis,SP,-21.426570046543283,-50.06791761043272,"2017-10-30 21:14:25","2017-10-13 20:05:04",17,"feira de santana",BA,-12.279680884817369,-38.95237951387847,1557.5313521450341,19.83,0.012731685928947818
292d7ad29c8a2d97eb84d18ab3d38997,beleza_saude,55,75,61,251625,30000,"sao paulo",SP,-23.58359782304825,-46.50714769338705,"2018-07-23 21:30:50","2018-07-05 21:37:23",17,palmas,TO,-10.227705125208283,-48.32585981465984,1496.4565109581868,255.92,0.1710173320280009
3f6dd48701c4fd8500f4c6d8862a806e,cool_stuff,22,23,16,8096,250,"belo horizonte",MG,-19.878513898894187,-43.95694702879617,"2017-11-20 17:46:59","2017-11-03 17:33:08",17,"pau d'arco",PA,-7.83446922905681,-50.04157082744215,1489.8991871315195,34.15,0.022921013914873313
beee47428ec6a6984d07930d75eb3c17,cama_mesa_banho,50,16,16,12800,1000,"sao paulo",SP,-23.48770416180969,-46.41534043450283,"2017-12-28 15:31:21","2017-12-11 15:15:11",17,"dias d'avila",BA,-12.612785254478522,-38.30880282506203,1480.0114696740002,17.48,0.011810719280337938
b7be5a34ce10bf066ff8013867a3f004,informatica_acessorios,60,16,11,10560,200,santos,SP,-23.93465945090488,-46.331065142884974,"2017-04-17 00:31:59","2017-03-31 00:21:25",17,"castro alves",BA,-12.764402339879743,-39.43035770661008,1437.9703145255814,20.8,0.014464832681099113
7a0ec92566b936a1e15fcf8b9f934f2c,moveis_escritorio,63,59,25,92925,16133,itaquaquecetuba,SP,-23.482623440635415,-46.37448952833195,"2018-05-29 03:15:11","2018-05-11 18:54:55",17,salvador,BA,-12.929005424923531,-38.50985531848346,1435.7664903781667,46.07,0.03208739046964776
df408c5fd9ac041cb84e393a6ff9e75c,moveis_escritorio,53,74,18,70596,8000,itaquaquecetuba,SP,-23.482623440635415,-46.37448952833195,"2018-02-06 03:37:39","2018-01-19 23:04:51",17,salvador,BA,-13.006714289933614,-38.51611048523236,1428.2464012906642,41.63,0.029147631642817515
dc6a8e8831352bf06b8b0e51ff58e69c,informatica_acessorios,32,19,11,6688,1100,"campina das missoes",RS,-27.99110094793968,-54.84605581154811,"2017-05-16 15:15:09","2017-04-29 15:10:58",17,goiania,GO,-16.614895610661804,-49.2209963032458,1389.3984436255023,22.43,0.016143677217221476
dd13617f642718bd4cdc450d197960f9,moveis_decoracao,62,27,17,28458,3400,brasilia,DF,-15.84494561197996,-47.98527498130505,"2017-04-03 20:28:33","2017-03-17 20:28:33",17,"paulo afonso",BA,-9.389995384239766,-38.227672721758765,1277.5985640587733,23.08,0.01806514240801718
557e4ef52fd0e240cbb18bcee0cbaddd,informatica_acessorios,42,2,30,2520,250,"belo horizonte",MG,-19.878513898894187,-43.95694702879617,"2017-12-15 02:19:10","2017-11-27 16:33:31",17,"passo fundo",RS,-28.264814305029326,-52.397392371443395,1264.5753381506324,25.63,0.020267673444812215
a7f6dc6901f43f7036bf20db72cc485d,ferramentas_jardim,20,12,21,5040,1000,brasilia,DF,-15.84494561197996,-47.98527498130505,"2017-07-02 23:05:15","2017-06-15 22:53:40",17,navegantes,SC,-26.85907968190116,-48.63953562951828,1225.6545057966591,27,0.0220290464174897
ab1cc49978a6bc3ae6e76e0d98f5886b,informatica_acessorios,41,2,29,2378,200,"belo horizonte",MG,-19.878513898894187,-43.95694702879617,"2018-05-14 11:15:35","2018-04-27 11:01:50",17,"nucleo residencial pilar",BA,-10.332137888567775,-40.153306924122305,1136.2700918560138,22.06,0.019414398177080072
985db56d4cabd2577d0960194dd2cd5a,beleza_saude,20,20,20,8000,2000,"campo grande",MS,-20.43684652070092,-54.67593485958462,"2016-10-21 16:33:54","2016-10-04 15:35:35",17,"belo horizonte",MG,-19.935201059120523,-43.9567957307693,1119.0481238385676,17.39,0.015539992990067922
2fec4096e4bb7a55405ef23109cd7337,moveis_escritorio,52,51,17,45084,9000,itaquaquecetuba,SP,-23.482623440635415,-46.37448952833195,"2017-07-11 04:23:21","2017-06-23 22:01:55",17,"barra do garcas",MT,-15.87636437716699,-52.26320605049736,1045.4710982452698,38.08,0.03642377112472443
ae8a60e4b03c5a4ba9ca0672c164b181,brinquedos,45,28,46,57960,7811,tiete,SP,-23.112239657852275,-47.71121420729847,"2016-10-21 16:27:42","2016-10-03 22:44:10",17,mozarlandia,GO,-14.748634131167314,-50.57128121158679,976.5841244576415,25.67,0.02628549794853174
066bb47ddf11dd2a74faed2b3d4d53ea,beleza_saude,17,18,17,5202,600,brasilia,DF,-15.84494561197996,-47.98527498130505,"2017-05-09 20:41:36","2017-04-22 20:30:16",17,vitoria,ES,-20.300412174851424,-40.30638214640201,949.974356512997,18.61,0.019590002479972612
8b1a9c54d1ba09cc40591511d388d286,moveis_decoracao,30,5,20,3000,1300,ibitinga,SP,-21.7664768468313,-48.83154737836604,"2017-09-11 09:30:16","2017-08-25 09:15:52",17,"porto alegre",RS,-29.991483510663272,-51.09895269471816,941.4985851737462,17.88,0.0189910003918916
c92ef068e2628ab736ea295a7d536c7d,moveis_escritorio,57,55,22,68970,11875,itaquaquecetuba,SP,-23.482623440635415,-46.37448952833195,"2018-05-02 05:50:18","2018-04-14 09:16:09",17,"serra bonita",MG,-15.214221895021417,-46.81607236757931,919.8732143966506,62.83,0.06830289111223932
0ecf0978216edaeca677433db9480a7c,automotivo,35,20,20,14000,5050,guaruja,SP,-23.997778323619357,-46.2767638411045,"2017-08-21 15:50:13","2017-08-04 15:34:27",17,brasilia,DF,-15.880714704306566,-47.977533418485024,919.1838150933411,21.89,0.023814605566980222
be5bc2f0da14d8071e2d45451ad119d9,esporte_lazer,16,16,16,4096,400,catanduva,SP,-21.14213135587665,-48.98902201177769,"2016-10-21 16:33:46","2016-10-03 16:56:50",17,panambi,RS,-28.295275344382283,-53.499592832956836,915.6916208865955,17.19,0.018772695531882464
2a0d4cb4d13b9552d7556878a2b38f97,eletronicos,21,7,16,2352,200,americana,SP,-22.72893170107914,-47.301322143632056,"2018-06-05 08:30:40","2018-05-18 09:00:22",17,"porto alegre",RS,-30.089115335824385,-51.208029619193354,905.2998117490258,15.23,0.01682315604437812
a2ea4752ce11b235a73469d2a849e358,moveis_decoracao,62,27,17,28458,3400,brasilia,DF,-15.84494561197996,-47.98527498130505,"2017-05-29 14:42:59","2017-05-12 14:32:00",17,"nova iguacu",RJ,-22.75306877541351,-43.456554256042644,902.3960061404719,18.77,0.020800180710327923
5fa07dc6decfe46fc927c21aa315c87c,cool_stuff,16,19,15,4560,500,brasilia,DF,-15.84494561197996,-47.98527498130505,"2017-09-04 17:15:19","2017-08-18 16:46:14",17,embu-guacu,SP,-23.828521677387236,-46.814795982633896,895.440321494274,15.82,0.017667285714362553
38648b71bc657c2d7c0f96930cee401c,informatica_acessorios,41,2,29,2378,250,"belo horizonte",MG,-19.878513898894187,-43.95694702879617,"2017-12-12 02:16:05","2017-11-24 23:15:21",17,araguapaz,GO,-15.095941725539806,-50.62738182019744,884.1206873528553,16.79,0.018990619991339552
1006246e3feed80b0a2f83d8364240f7,beleza_saude,25,19,15,7125,1000,brasilia,DF,-15.84494561197996,-47.98527498130505,"2017-04-25 12:32:54","2017-04-08 11:46:53",17,"sao paulo",SP,-23.538638336112843,-46.409015210658424,870.580006091271,17.27,0.019837349673970602
d1594d3b636b86cf4ce22e2ca650a55c,cama_mesa_banho,50,11,11,6050,900,"sao paulo",SP,-23.48770416180969,-46.41534043450283,"2018-05-16 20:15:08","2018-04-29 19:45:46",17,"porto alegre",RS,-30.061779379969934,-51.170740679987325,869.269679139353,16.38,0.018843404288778964
e4b35ca9f1267c27309ebb5b2afc0587,informatica_acessorios,41,2,29,2378,250,"belo horizonte",MG,-19.878513898894187,-43.95694702879617,"2017-12-04 23:30:23","2017-11-17 23:19:42",17,joinville,SC,-26.270855620639093,-48.86166604614817,869.1442686815175,16.79,0.019317851598412136
02e8498a91ec0e72dfaff47b27c805a3,fashion_calcados,22,12,33,8712,1400,penapolis,SP,-21.426570046543283,-50.06791761043272,"2017-11-21 07:30:31","2017-11-03 13:40:44",17,"caxias do sul",RS,-29.173247442318996,-51.1670813773732,867.7762035875866,17.84,0.020558295936492995
731739da258b5bf19d913f4c7dc53a3f,moveis_decoracao,101,8,57,46056,17033,itaquaquecetuba,SP,-23.482623440635415,-46.37448952833195,"2018-06-01 03:14:48","2018-05-14 09:19:19",17,brasilia,DF,-15.842882222788111,-48.023477609091415,866.1811821006543,91.03,0.10509348607555168
a1c87156ca249199bbcd96fbfcd0296d,eletronicos,16,19,15,4560,300,brasilia,DF,-15.84494561197996,-47.98527498130505,"2017-09-21 04:25:50","2017-09-03 17:12:39",17,"sao paulo",SP,-23.491899953372947,-46.76073601748513,859.2465895026938,15.79,0.018376564065431762
28cf6655a339bec298464ed6ac5b4550,cama_mesa_banho,68,17,49,56644,2584,guarulhos,SP,-23.453200132516344,-46.484469408993874,"2018-03-14 14:50:36","2018-02-25 14:38:34",17,brasilia,DF,-16.024303965104266,-48.07309083213991,841.9545000461363,15.31,0.01818388048185628
e47110d41905de410a2e6b8e4d9997ef,fashion_calcados,22,12,33,8712,1400,penapolis,SP,-21.426570046543283,-50.06791761043272,"2017-07-12 04:03:13","2017-06-24 20:52:28",17,"montes claros",MG,-16.717108517212292,-43.8071416039463,840.052182947916,17.75,0.02112963975370149
faacd0beba2277101f227f7968ddbc57,fashion_calcados,22,12,33,8712,1500,penapolis,SP,-21.426570046543283,-50.06791761043272,"2017-11-14 11:50:10","2017-10-28 11:37:17",17,ipaba,MG,-19.41090481717707,-42.41846537530112,827.2965326031002,17.75,0.02145542656168203
c6d494c8b8f23ab293d35084ce4babd1,cool_stuff,22,23,16,8096,250,"belo horizonte",MG,-19.878513898894187,-43.95694702879617,"2018-05-14 03:30:29","2018-04-26 12:09:44",17,curitiba,PR,-25.44145496502972,-49.31273063488947,826.5741517311975,17.06,0.020639406596817855
04f92792b1960e9302825742e0751a5c,moveis_escritorio,63,59,25,92925,16133,itaquaquecetuba,SP,-23.482623440635415,-46.37448952833195,"2018-05-29 09:14:41","2018-05-12 09:01:06",17,luziania,GO,-16.25091275587183,-47.95781462520741,820.3493401623253,66.98,0.08164814271289161
596e3411897df0ab0f5d786eaafcf839,cool_stuff,33,44,19,27588,1000,montenegro,RS,-29.67034898140752,-51.46146829327502,"2017-12-26 03:55:36","2017-12-08 10:41:44",17,jandira,SP,-23.523662399900104,-46.90050861314917,819.3984217782099,15.8,0.019282438896711294
d48af423b2e9d7e208f37ba365eebc1a,bebes,19,13,13,3211,417,brasilia,DF,-15.84494561197996,-47.98527498130505,"2017-07-24 09:25:20","2017-07-07 09:14:09",17,jundiai,SP,-23.148804478137823,-46.92948882832884,819.0246563118613,17.13,0.020915121257933635
a41c8759fbe7aab36ea07e038b2d4465,esporte_lazer,26,8,20,4160,767,sorocaba,SP,-23.49636707533955,-47.43890030979464,"2016-10-21 16:18:26","2016-10-03 21:13:36",17,"porto alegre",RS,-30.04307239410819,-51.21141662640671,817.86649343827,17.24,0.021079234983113072
46046adea0e222a29259bad3d922fee8,telefonia_fixa,17,8,13,1768,300,franca,SP,-20.53193450696372,-47.399446711253766,"2016-10-21 16:29:32","2016-10-04 10:41:17",17,"salto veloso",SC,-26.90864860424969,-51.399209072338095,816.8659144525434,15.98,0.019562574122963205
af4b4e5e7cc290c42e0935df9ff3479c,cama_mesa_banho,50,16,16,12800,950,"sao paulo",SP,-23.48770416180969,-46.41534043450283,"2018-03-27 16:50:26","2018-03-10 16:34:24",17,"caxias do sul",RS,-29.16957635052199,-51.164852512339095,788.6249698098043,19.88,0.025208433363192312
980496fd521b7f8fe2d75593d11ee1fb,beleza_saude,55,75,61,251625,30000,"sao paulo",SP,-23.58359782304825,-46.50714769338705,"2017-11-20 22:30:51","2017-11-03 22:16:26",17,navirai,MS,-23.065897674516034,-54.20917735595354,787.8476052660004,177.98,0.22590663322497342
21925ec4d0e7c5399673ad2b3d3f7995,moveis_escritorio,73,85,28,173740,28100,cascavel,PR,-24.94812606272721,-53.45992279514128,"2017-12-11 01:10:12","2017-11-24 00:34:46",17,"pocos de caldas",MG,-21.791043351950446,-46.56244368105504,785.9362732818669,68.13,0.08668641760928875
31da75f0c78b03d446ea7342a6c002b9,moveis_decoracao,18,40,13,9360,2600,"sao paulo",SP,-23.485755415382435,-46.70221321730524,"2018-07-23 04:10:14","2018-07-05 14:55:38",17,"capao da canoa",RS,-29.750130537873627,-50.02052715523322,770.0188554321417,27.36,0.03553159744983818
e524a1d7796e94896f17636abddaafe5,perfumaria,23,12,18,4968,284,londrina,PR,-23.325326444630374,-51.158433938397955,"2018-07-30 10:10:19","2018-07-13 09:58:40",17,"porto alegre",RS,-30.06897070552254,-51.155099487362286,749.2931304317967,20.38,0.027198968163842065
80dfedb6d17bf23539beeef3c768f4d7,eletroportateis,39,39,58,88218,20500,limeira,SP,-22.564590914795993,-47.40315315223038,"2017-05-05 20:50:13","2017-04-18 20:37:26",17,brasilia,DF,-15.861219982039001,-48.09050137567823,748.2961664909288,195.76,0.26160764783548185
47bfd5091e67cf36c5d7d5e6ca97db53,tablets_impressao_imagem,60,11,11,7260,150,santos,SP,-23.93465945090488,-46.331065142884974,"2017-08-28 18:25:17","2017-08-11 18:11:14",17,serra,ES,-20.236316793236703,-40.27327897238731,746.7308367669128,15.1,0.020221476409595988
5e8dbd76385140aefb062d9ed31c7a75,beleza_saude,50,75,56,210000,30000,"sao paulo",SP,-23.58359782304825,-46.50714769338705,"2017-06-05 17:10:13","2017-05-19 17:07:52",17,vitoria,ES,-20.288591287264104,-40.30996655037796,736.0582933984055,117.99,0.16029980377673114
644e4fc3f5cdee08df44f2534319fac8,moveis_decoracao,80,10,50,40000,14800,jaci,SP,-20.889600826708687,-49.57165655226015,"2018-07-19 00:50:52","2018-07-02 00:11:34",17,teresopolis,RJ,-22.416152078478916,-42.96901641569299,702.5598543811382,102.57,0.14599467840409203
ef1b29b591d31d57c0d7337460dd83c9,moveis_decoracao,40,8,30,9600,1800,ibitinga,SP,-21.7664768468313,-48.83154737836604,"2016-10-21 16:22:33","2016-10-03 22:51:30",17,ipatinga,MG,-19.4780955431646,-42.55679483097696,700.2133529075124,17.37,0.024806724875888385
cdee3ff3ab3f8f61f223e40ed025a7ff,cama_mesa_banho,50,16,16,12800,700,"sao paulo",SP,-23.48770416180969,-46.41534043450283,"2017-12-08 02:46:57","2017-11-20 21:39:48",17,"alfredo chaves",ES,-20.63564596381401,-40.749096999405,663.8764440286438,16.67,0.02511009412962505
87e145665c1cdfcec92e9e74e2469cfc,informatica_acessorios,41,2,29,2378,250,"belo horizonte",MG,-19.878513898894187,-43.95694702879617,"2017-09-14 13:10:11","2017-08-28 12:55:29",17,"vitoria da conquista",BA,-14.855251652894076,-40.85233870763861,647.9355879167574,16.79,0.025913069621601136
734db12c3a1651cf9f036481d273c5c1,informatica_acessorios,41,2,29,2378,250,"belo horizonte",MG,-19.878513898894187,-43.95694702879617,"2017-09-21 10:44:36","2017-09-04 10:24:19",17,lins,SP,-21.697048432542786,-49.746439248588445,634.3716816353308,15.1,0.02380308017702507
20d07181f8cec8c3fa51212c7dd926ea,cool_stuff,45,25,18,20250,2275,congonhal,MG,-22.159375877706918,-46.04402732344177,"2017-12-29 16:39:19","2017-12-12 16:32:43",17,"vila velha",ES,-20.37616120906966,-40.30529402401848,626.3091068983035,28.3,0.04518535606188334
937e9317b5d8768bd5ddc9c81cd80f27,moveis_escritorio,53,52,17,46852,9725,itaquaquecetuba,SP,-23.482623440635415,-46.37448952833195,"2018-05-29 00:30:34","2018-05-12 00:08:21",17,"correia pinto",SC,-27.584377645787185,-50.3650947867766,606.3469800859272,26.74,0.0441001619175387
5aae98560d0aff8d326d8f5767979e22,informatica_acessorios,21,14,15,4410,200,maringa,PR,-23.41848622413047,-51.92625934548862,"2018-07-23 03:30:15","2018-07-05 10:58:26",17,"cruz alta",RS,-28.644997714736004,-53.60101202888114,604.287284238351,18.97,0.03139235342989213
0f6134bc3d92b2b091f7cab65b9f7ac2,fashion_calcados,22,15,33,10890,750,penapolis,SP,-21.426570046543283,-50.06791761043272,"2018-06-20 12:10:28","2018-06-03 11:49:20",17,papagaios,MG,-19.44022546096705,-44.752428646173385,595.7720190818741,23.21,0.03895785511338417
3b7373170271acc24a203e59f70e5a54,informatica_acessorios,41,2,29,2378,200,"belo horizonte",MG,-19.878513898894187,-43.95694702879617,"2017-12-12 19:54:47","2017-11-25 19:37:32",17,bauru,SP,-22.33464564974889,-49.05350529935354,594.5451141481415,15.1,0.02539756805778336
d22d63ea1239b6d93684618e90fd59ed,moveis_escritorio,56,64,35,125440,7463,itaquaquecetuba,SP,-23.482623440635415,-46.37448952833195,"2018-06-05 16:59:35","2018-05-19 15:05:10",17,andradina,SP,-20.913260060505507,-51.37206780904842,587.9975763617159,14.89,0.0253232336298614
6125b8598105f92aeac157727ff3bfc4,fashion_calcados,22,12,33,8712,1400,penapolis,SP,-21.426570046543283,-50.06791761043272,"2017-12-10 22:13:34","2017-11-23 21:57:53",17,pompeu,MG,-19.22368752690102,-45.01337567053801,580.6866208159493,17.84,0.030722250798429284
a2abb866736a7dbc26c5cbb3b2d92826,moveis_cozinha_area_de_servico_jantar_e_jardim,21,41,31,26691,6550,timoteo,MG,-19.54373077737746,-42.651621091858686,"2018-04-02 09:07:17","2018-03-16 08:32:30",17,itatiba,SP,-22.988874545477703,-46.84197558882967,578.5304310019279,39.61,0.0684665799366879
a8ad6062c04fe8e59731cf03daf951b0,cama_mesa_banho,68,17,49,56644,2584,guarulhos,SP,-23.453200132516344,-46.484469408993874,"2018-04-19 14:15:26","2018-04-02 14:04:43",17,"sao goncalo do abaete",MG,-18.335701122064716,-45.830754061910554,572.6414077099681,19.52,0.03408765020689266
0d8fd53f6fe12430bce52454cc326f8e,brinquedos,54,14,16,12096,1500,ibitinga,SP,-21.7664768468313,-48.83154737836604,"2017-12-19 11:30:37","2017-12-02 11:18:55",17,"nova iguacu",RJ,-22.714897197527662,-43.43013522482777,565.3745550827279,16.7,0.029537940556161726
0d8fd53f6fe12430bce52454cc326f8e,brinquedos,54,16,12,10368,1500,ibitinga,SP,-21.7664768468313,-48.83154737836604,"2017-12-19 11:30:37","2017-12-02 11:18:55",17,"nova iguacu",RJ,-22.714897197527662,-43.43013522482777,565.3745550827279,16.7,0.029537940556161726
56ba89857b4e6eb192108f310a81163b,moveis_escritorio,52,52,17,45968,8200,itaquaquecetuba,SP,-23.482623440635415,-46.37448952833195,"2018-06-18 23:11:50","2018-06-01 22:49:13",17,"uniao da vitoria",PR,-26.226014834302923,-51.087968907648744,564.4900486593937,57.24,0.10140125611769271
0f127f53a526c20902f9966a2a38846f,informatica_acessorios,41,2,29,2378,250,"belo horizonte",MG,-19.878513898894187,-43.95694702879617,"2017-12-19 02:37:06","2017-12-01 12:26:53",17,tatui,SP,-23.32324191018052,-47.8687957109749,556.5347664188967,15.1,0.027132177378896078
dcab0edc586a9707944e662c0ce7d3b2,cama_mesa_banho,50,11,11,6050,500,"sao paulo",SP,-23.48770416180969,-46.41534043450283,"2017-10-27 09:26:23","2017-10-10 08:10:14",17,"nova era",MG,-19.770824131113795,-43.02637346071022,541.3095864271726,15.1,0.027895312365822184
dcab0edc586a9707944e662c0ce7d3b2,cama_mesa_banho,50,11,11,6050,550,"sao paulo",SP,-23.48770416180969,-46.41534043450283,"2017-10-27 09:26:23","2017-10-10 08:10:14",17,"nova era",MG,-19.770824131113795,-43.02637346071022,541.3095864271726,15.1,0.027895312365822184
38fc895ea0a2aa253a46a6fdbb65aaf5,moveis_escritorio,57,55,22,68970,11875,itaquaquecetuba,SP,-23.482623440635415,-46.37448952833195,"2018-08-09 10:24:11","2018-07-22 17:47:13",17,fernandopolis,SP,-20.28599742780295,-50.260633954189515,535.373950776131,34.27,0.0640113325467532
b206fde9513a754fa4290463ed1ad4aa,moveis_decoracao,30,3,20,1800,700,ibitinga,SP,-21.7664768468313,-48.83154737836604,"2017-07-11 03:50:33","2017-06-23 15:14:00",17,itaguai,RJ,-22.880126955803707,-43.81994367177612,529.7305247869483,16.11,0.030411689049784814
8ea7aebc18842332aad5f41ca74b334c,eletroportateis,35,35,30,36750,6300,limeira,SP,-22.564590914795993,-47.40315315223038,"2017-04-19 13:25:19","2017-04-01 15:58:41",17,araruama,RJ,-22.871874606599256,-42.26921988909431,527.2586602509652,32.29,0.061241289018620505
47eb16c7c5c5142c9c161ba03eb77d91,moveis_escritorio,54,54,18,52488,12650,itaquaquecetuba,SP,-23.482623440635415,-46.37448952833195,"2018-05-14 15:10:09","2018-04-27 14:51:32",17,itaperuna,RJ,-21.20851525964521,-41.87484723167247,526.8940062172641,40.12,0.07614434692099452
b290153199203cf58c0748db9b239ad3,brinquedos,19,11,20,4180,500,"sao paulo",SP,-23.652502847625374,-46.66809535567546,"2018-01-16 04:12:27","2017-12-29 13:57:31",17,guarapuava,PR,-25.41838279771924,-51.48031049108998,524.4407210976684,16.25,0.030985389475455524
15bed8e2fec7fdbadb186b57c46c92f2,perfumaria,36,18,27,17496,500,"presidente prudente",SP,-22.11545190136955,-51.39640853541775,"2017-09-20 14:30:09","2017-09-03 14:22:03",17,"sao paulo",SP,-23.558009280598995,-46.53416848251484,523.0235310744007,12.38,0.02367006313189938
4ba83c2746627aa89b8cbf168fbb6fa3,automotivo,40,30,11,13200,1100,guaruja,SP,-23.997778323619357,-46.2767638411045,"2018-02-12 17:32:03","2018-01-26 16:52:56",17,"belo horizonte",MG,-19.81661762585845,-43.99762518359399,520.5694636141565,18.73,0.03597982845548271
9460b0cf19053015adc675b188e5750b,cama_mesa_banho,50,16,16,12800,1000,"sao paulo",SP,-23.48770416180969,-46.41534043450283,"2017-09-21 16:25:40","2017-09-04 16:14:27",17,adamantina,SP,-21.68804676595129,-51.08242332977711,518.819192358808,13.08,0.02521109510334779
fe563d119bfc3fde7ce511e31594507c,relogios_presentes,28,10,18,5040,350,"belo horizonte",MG,-19.95455748237063,-43.93409969455826,"2018-06-04 23:13:36","2018-05-18 23:01:55",17,unai,MG,-16.362606334443775,-46.89279560165654,506.7707115813308,14.37,0.028356019145541686
2fbeca2f2c8ffa097d80f9edca1c444f,cama_mesa_banho,50,11,11,6050,400,"sao paulo",SP,-23.48770416180969,-46.41534043450283,"2017-12-27 03:10:22","2017-12-10 02:56:24",17,florianopolis,SC,-27.609381931838456,-48.52161978907573,504.2624618648085,14.16,0.02808061489969932
8f1e49888948febad9d7dc3ce8ec85c4,brinquedos,70,35,40,98000,16350,barretos,SP,-20.5342210194687,-48.563568431308724,"2017-09-08 17:30:13","2017-08-22 12:42:42",17,"angra dos reis",RJ,-22.974517828715573,-44.44355450504452,504.2250370605448,70,0.13882690238484677
1aaa4f61529fb2b392016a694b437885,perfumaria,23,14,21,6762,190,"presidente prudente",SP,-22.11545190136955,-51.39640853541775,"2018-01-12 15:56:20","2017-12-26 15:47:25",17,"sao paulo",SP,-23.581576372468106,-46.760100861792296,501.8590650472163,13.26,0.02642176045729584
3cd74c600666380ec586606e62f1d20d,bebes,22,23,16,8096,100,"belo horizonte",MG,-19.878513898894187,-43.95694702879617,"2018-06-13 21:55:28","2018-05-27 21:42:16",17,"sao paulo",SP,-23.622274456287144,-46.66992842714524,501.37803885773354,15.23,0.03037628060993219
cf04407ac40c37f0ec0e0873da74117f,perfumaria,17,6,12,1224,200,campinas,SP,-22.987222371013935,-47.151072819246686,"2017-11-22 16:35:23","2017-11-05 16:26:33",17,"presidente venceslau",SP,-21.881549344197193,-51.84621930031394,497.5738247988755,11.85,0.023815561449177704
5fc0077c7ba092d24743a55d05cad3fa,fashion_calcados,22,12,33,8712,1400,penapolis,SP,-21.426570046543283,-50.06791761043272,"2017-11-17 21:06:46","2017-10-31 20:56:17",17,taubate,SP,-23.036951634709904,-45.56997640165054,495.9789547263189,13.61,0.027440680436753604
e684d169c6ce5450a7cf6af58dfeb900,informatica_acessorios,41,2,29,2378,200,"belo horizonte",MG,-19.878513898894187,-43.95694702879617,"2017-10-10 16:10:16","2017-09-23 16:01:37",17,"sao paulo",SP,-23.590333309740902,-46.54798059048414,491.4993912920451,14.1,0.028687726271510047
0c38244c47b653d8aa8052e9282c23f8,automotivo,17,8,13,1768,75,"belo horizonte",MG,-19.878513898894187,-43.95694702879617,"2017-12-11 22:55:16","2017-11-24 19:33:10",17,"sao paulo",SP,-23.484996628368613,-46.66293759616827,488.46400778463885,14.1,0.028865995805808918
453e76957c508954ea1916f4ea18739e,informatica_acessorios,36,2,28,2016,200,"belo horizonte",MG,-19.878513898894187,-43.95694702879617,"2017-08-28 22:25:18","2017-08-11 21:40:24",17,"sao paulo",SP,-23.484231126002676,-46.616027463644734,485.6416143037375,14.1,0.029033755725845517
1d63bc71f05d7d540663b4314f166b92,informatica_acessorios,41,2,29,2378,200,"belo horizonte",MG,-19.878513898894187,-43.95694702879617,"2018-05-07 12:30:43","2018-04-20 12:24:23",17,"sao paulo",SP,-23.549435947544563,-46.50597101096426,485.3509938480275,15.23,0.031379352660332246
df7cfd00c1cf356a025d85b77e1121bc,esporte_lazer,49,35,47,80605,2217,joinville,SC,-26.283149245628714,-48.851284630590314,"2018-01-05 01:53:23","2017-12-19 00:26:32",17,"porto alegre",RS,-30.07200823826747,-51.17719962332037,478.630112859154,22.52,0.04705094684802445
96b0f7debb763d6546823ac47d15e739,fashion_calcados,22,12,33,8712,700,penapolis,SP,-21.426570046543283,-50.06791761043272,"2018-05-07 23:31:12","2018-04-20 22:57:27",17,"sao jose dos campos",SP,-23.23724961587513,-45.88082955926476,475.0073200490076,14.79,0.03113636227432049
2c40105463f11c726046975015826e55,utilidades_domesticas,26,41,26,27716,1400,"sao paulo",SP,-23.6442788484621,-46.66304850360666,"2018-05-07 09:52:57","2018-04-20 09:36:11",17,florianopolis,SC,-27.536913214854426,-48.50901793197551,470.38948221421543,17.93,0.038117348873533435
56c52cf14c501d31e4d208bf86cecb53,automotivo,35,20,20,14000,3550,guaruja,SP,-23.997778323619357,-46.2767638411045,"2017-12-17 22:36:50","2017-11-30 22:20:55",17,florianopolis,SC,-27.591860314472758,-48.54902548765073,459.47435940698455,21.89,0.04764139619945732
b71f2bcb304134cd03bb33a3f86a5a46,informatica_acessorios,41,2,29,2378,250,"belo horizonte",MG,-19.878513898894187,-43.95694702879617,"2017-11-24 10:30:31","2017-11-07 10:17:30",17,uberlandia,MG,-18.915256718016018,-48.19413815875127,456.77413515839896,12.48,0.027322037390913604
f63a31c3349b87273468ff7e66852056,,37,6,35,7770,850,piracicaba,SP,-22.750100527352892,-47.6459038030758,"2018-01-15 16:38:26","2017-12-29 16:20:43",17,"rio de janeiro",RJ,-22.920104850395337,-43.22138202997862,453.4595252331615,16.11,0.035526875285542846
19306838a9d7a11a82ea7656dbd2f151,beleza_saude,30,12,16,5760,543,bombinhas,SC,-27.14294161449014,-48.50728684609616,"2018-08-27 13:04:45","2018-08-10 12:50:30",17,"sao paulo",SP,-23.512595181812166,-46.502528387348555,450.8019635962206,21.8,0.04835826318522
c20197cf31f945d8c2cbf79518530b4b,beleza_saude,18,18,18,5832,800,congonhal,MG,-22.159375877706918,-46.04402732344177,"2017-11-16 07:10:11","2017-10-29 23:15:43",17,araguari,MG,-18.63020066912271,-48.178446382597535,450.7288912631999,13.58,0.030128976116754087
4a6309669545b27a89528e2afcf76b6e,informatica_acessorios,31,17,22,11594,1033,itauna,MG,-20.082126604231757,-44.5732983518722,"2017-07-24 03:30:44","2017-07-06 09:07:17",17,"sao paulo",SP,-23.595176189566608,-46.74183651471519,449.84710706449954,18.59,0.04132515183060752
c3783793e341d4996dfbc614da1dee70,cool_stuff,45,25,18,20250,2275,congonhal,MG,-22.159375877706918,-46.04402732344177,"2017-12-29 04:54:33","2017-12-12 04:45:54",17,"sao fidelis",RJ,-21.642286961806906,-41.73722159732909,447.68339981550923,25.76,0.05754066380530465
10c2b05e3b425d09cb2a1fa7f08d701f,eletrodomesticos_2,55,10,67,36850,6350,blumenau,SC,-26.882803470063273,-49.107613095621076,"2018-03-05 19:26:25","2018-02-15 20:10:16",17,"sao paulo",SP,-23.497743969101172,-46.716125492041655,446.37555242560586,26.23,0.05876217874716954
86fe069057d591923b2a30a47b2fa5ab,informatica_acessorios,41,2,29,2378,200,"belo horizonte",MG,-19.878513898894187,-43.95694702879617,"2017-12-04 23:26:10","2017-11-17 22:58:07",17,descalvado,SP,-21.915727706969644,-47.62033250569028,442.50776927342264,15.1,0.03412369465239786
d3123a8def350af103d31c2026666c25,ferramentas_jardim,68,3,48,9792,1450,"santo antonio de posse",SP,-22.607003040200272,-46.91414970477579,"2018-09-04 18:15:16","2018-08-18 18:04:29",17,uberlandia,MG,-18.900580036322836,-48.34411500838209,437.79300331969785,23.03,0.05260476943525379
dd68ef67523952a95a744e87a90375b9,beleza_saude,30,13,16,6240,593,bombinhas,SC,-27.14294161449014,-48.50728684609616,"2018-08-07 03:55:14","2018-07-20 10:33:13",17,"sao paulo",SP,-23.63058688480546,-46.61784924409308,433.8859422950831,21.95,0.050589332034804535
1c5ea09d670777647e55f734e3d784b2,fashion_calcados,22,12,33,8712,900,penapolis,SP,-21.426570046543283,-50.06791761043272,"2017-11-17 12:35:11","2017-10-31 12:20:33",17,"sao paulo",SP,-23.7731727105142,-46.717809538432725,431.33216877493834,13.61,0.031553408220524964
99fe839853e734a1e1a1969bf1c230fc,fashion_calcados,22,12,33,8712,1400,penapolis,SP,-21.426570046543283,-50.06791761043272,"2017-06-12 11:30:22","2017-05-26 11:21:29",17,"sao paulo",SP,-23.7119191917883,-46.68725184540367,429.8407814133911,13.52,0.031453506937019544
f8fa646064b580d92a30a5db627a817a,fashion_calcados,32,12,37,14208,2000,penapolis,SP,-21.426570046543283,-50.06791761043272,"2017-03-27 11:30:03","2017-03-10 11:30:03",17,jatai,GO,-17.8856069719365,-51.719640227882586,429.71145080240484,24.61,0.05727098953040576
d1c433d85b26e0171d6f80a9356ae7bf,fashion_calcados,22,12,33,8712,1400,penapolis,SP,-21.426570046543283,-50.06791761043272,"2017-12-11 12:38:31","2017-11-24 10:33:49",17,guarulhos,SP,-23.444360601996667,-46.551058040798665,425.0803875727588,13.61,0.03201747339535971
c74e4862507efb811471cd922e6f3529,cool_stuff,20,8,13,2080,750,congonhal,MG,-22.159375877706918,-46.04402732344177,"2017-07-10 18:45:17","2017-06-23 18:31:57",17,"arraial do cabo",RJ,-22.960371447400345,-42.025042964885486,421.86008421418694,36.12,0.08562080498154251
64e19c385c1026d61f22cdf85a0b42f8,moveis_escritorio,48,49,40,94080,12675,itaquaquecetuba,SP,-23.482623440635415,-46.37448952833195,"2017-05-15 14:05:11","2017-04-28 13:52:51",17,"alem paraiba",MG,-21.865605010277115,-42.705867014246564,416.80395322739713,43.86,0.10522932822585575
7975bad6e2c65b59ab15b7152c94c63d,perfumaria,23,14,21,6762,190,"presidente prudente",SP,-22.11545190136955,-51.39640853541775,"2018-01-11 10:48:57","2017-12-25 10:31:34",17,guara,SP,-20.433990426300614,-47.81416224047547,415.2746594815484,13.26,0.031930674548152085
4f19c6b4e6eec789ace7daa84889dd37,esporte_lazer,23,11,11,2783,2300,claudio,MG,-20.437733622502854,-44.75914024487753,"2017-06-12 02:05:15","2017-05-26 01:57:45",17,"santo andre",SP,-23.701680965768528,-46.519658793517806,405.42739498497946,15.1,0.03724464648117682
f2125ad278ab03d4779ded7001337ee1,bebes,56,11,41,25256,2600,paulinia,SP,-22.73306060560335,-47.17829082930352,"2017-12-18 16:53:45","2017-12-01 16:51:00",17,"rio de janeiro",RJ,-22.92505850706913,-43.230232813203365,404.860006259566,21.45,0.05298127665948773
4dbb5ab859405ac1cb171f7cd93e7f3a,informatica_acessorios,41,2,29,2378,200,"belo horizonte",MG,-19.878513898894187,-43.95694702879617,"2017-12-12 15:52:00","2017-11-25 15:38:11",17,"arraial do cabo",RJ,-22.960371447400345,-42.025042964885486,396.45245200443577,15.1,0.038087795708301106
82b2afa9de6b8380c015e7281c3af763,fashion_calcados,22,12,33,8712,800,penapolis,SP,-21.426570046543283,-50.06791761043272,"2018-05-16 05:30:59","2018-04-28 07:57:05",17,jundiai,SP,-23.211714582578274,-46.8753760355472,383.41702033265636,14.79,0.03857418741392349
50013835d7b14aefb452825864d3e414,perfumaria,20,20,20,8000,100,petropolis,RJ,-22.549033360244323,-43.210094724044055,"2016-10-21 16:19:17","2016-10-04 16:08:52",17,"sao paulo",SP,-23.661894701775953,-46.71730168665694,379.14276420548543,14.86,0.039193679539526356
279eab1ce88064419806859e4575a10e,esporte_lazer,23,11,11,2783,2300,claudio,MG,-20.437733622502854,-44.75914024487753,"2017-05-05 03:51:12","2017-04-17 07:42:23",17,jundiai,SP,-23.148804478137823,-46.92948882832884,375.3164342860696,14.52,0.03868735465213528
502ffac2e1d978a412b48e2b290bfb4d,esporte_lazer,25,11,11,3025,3200,claudio,MG,-20.437733622502854,-44.75914024487753,"2017-07-17 04:50:15","2017-06-29 17:45:24",17,iracemapolis,SP,-22.590263851424318,-47.51988929812747,372.3257577941391,25.19,0.06765580804626385
ba70922d044f56d4b4cce2010e3f4cd6,fashion_calcados,32,12,37,14208,2200,penapolis,SP,-21.426570046543283,-50.06791761043272,"2017-06-19 14:10:15","2017-06-02 14:02:21",17,amparo,SP,-22.712172829880434,-46.78936475062037,366.5535221475959,15.47,0.04220393220985304
8912983ff47de54fb2cf774efebd8f09,cama_mesa_banho,70,10,11,7700,1000,curitiba,PR,-25.450167784185595,-49.22439440716861,"2018-04-10 11:32:25","2018-03-24 10:34:27",17,campinas,SP,-22.903434628368608,-47.05276681724273,358.4887780603607,16.95,0.04728181476616832
3200257acc9dd36d1fa819e72fca7e59,informatica_acessorios,39,11,13,5577,517,itauna,MG,-20.082126604231757,-44.5732983518722,"2017-12-11 15:13:44","2017-11-24 12:58:53",17,"ribeirao preto",SP,-21.210104711049134,-47.80139005429387,358.26485347658235,16.81,0.04692059474122758
65d1e226dfaeb8cdc42f665422522d14,esporte_lazer,17,14,14,3332,476,"sao paulo",SP,-23.592660045242067,-46.79704030919264,"2016-10-21 16:24:43","2016-10-03 21:01:41",17,"rio de janeiro",RJ,-22.93862838995325,-43.36065293880199,358.20967930402765,14.11,0.0393903370434171
c0607dd794398507f4e1371ad2369b93,cama_mesa_banho,100,10,11,11000,2950,curitiba,PR,-25.450167784185595,-49.22439440716861,"2018-05-07 14:32:43","2018-04-20 13:30:18",17,sumare,SP,-22.828654864562257,-47.267296160568925,352.43430700050493,22.62,0.06418217395608877
54761f5e42ab5a33268fe64804e92448,cama_mesa_banho,50,16,16,12800,950,"sao paulo",SP,-23.48770416180969,-46.41534043450283,"2018-01-12 11:48:47","2017-12-26 11:36:36",17,"sao goncalo",RJ,-22.84263449298823,-43.07412079219987,348.74877915709646,15.67,0.044932056931850456
086928951ba74a6682919fc942c458d0,utilidades_domesticas,26,41,26,27716,1400,"sao paulo",SP,-23.6442788484621,-46.66304850360666,"2017-10-03 03:36:34","2017-09-15 03:48:04",17,"rio de janeiro",RJ,-22.947654111027695,-43.33860615583707,347.97508098193487,16.6,0.04770456537622529
7b1acb069ff55e773d2b0af98e1856ca,automotivo,17,8,13,1768,75,"belo horizonte",MG,-19.878513898894187,-43.95694702879617,"2018-05-04 00:50:16","2018-04-17 00:31:55",17,"rio de janeiro",RJ,-22.91164122453689,-43.18354724508045,346.3782947366485,15.23,0.043969267796007176
ed6bd5133891ca77ad3ade9726a6af7b,informatica_acessorios,39,11,13,5577,517,itauna,MG,-20.082126604231757,-44.5732983518722,"2017-09-08 02:56:02","2017-08-21 15:22:48",17,"rio de janeiro",RJ,-22.90481260283338,-43.17623582445608,345.2819667958506,16.81,0.048684847795538014
698c554458e6b44e6f2f1450583c2547,informatica_acessorios,28,22,23,14168,3407,itauna,MG,-20.082126604231757,-44.5732983518722,"2017-06-12 02:32:26","2017-05-25 17:10:19",17,"rio de janeiro",RJ,-22.92931946221692,-43.23596118471042,345.234349567361,36.29,0.10511700253893541
25be8e0ff01817a8a96f61605da2e447,informatica_acessorios,39,2,30,2340,200,"belo horizonte",MG,-19.878513898894187,-43.95694702879617,"2018-09-03 17:09:46","2018-08-17 16:52:19",17,"sao goncalo",RJ,-22.834624557710672,-42.9434559615717,344.7887297959289,15.34,0.04449101340719382
9fab0f942fae1cf572b2ae5d159be064,informatica_acessorios,41,2,29,2378,200,"belo horizonte",MG,-19.878513898894187,-43.95694702879617,"2017-10-27 05:05:28","2017-10-09 11:13:00",17,"santa rita de caldas",MG,-22.033741109922655,-46.33238183204734,343.6363537618344,12.48,0.036317461361057186
22420f3718ef75dcddb4f03201096895,bebes,22,23,16,8096,100,"belo horizonte",MG,-19.878513898894187,-43.95694702879617,"2018-03-27 19:20:33","2018-03-10 18:42:35",17,"rio de janeiro",RJ,-22.878476937821056,-43.31517005147447,339.8762887607246,15.23,0.04481042221430761
956057c9959fe111349c59bf929f5c7b,cama_mesa_banho,50,11,11,6050,900,"sao paulo",SP,-23.48770416180969,-46.41534043450283,"2017-11-22 11:46:07","2017-11-05 11:29:33",17,"rio de janeiro",RJ,-22.906800000000004,-43.176623145421054,336.9940838375677,15.17,0.04501562706160738
356b492aba2d1a7da886e54e0b6212b7,perfumaria,22,14,16,4928,610,petropolis,RJ,-22.549033360244323,-43.210094724044055,"2016-10-21 16:35:37","2016-10-04 14:44:33",17,suzano,SP,-23.529356731919226,-46.31442922624533,335.57170304120564,17.59,0.052418007360531475
885935156ba43094f3ae95f3c14e0381,utilidades_domesticas,26,41,26,27716,1400,"sao paulo",SP,-23.6442788484621,-46.66304850360666,"2018-02-20 02:55:37","2018-02-02 16:06:44",17,"rio de janeiro",RJ,-23.011334694990957,-43.450256415344235,335.24543335396106,16.6,0.04951596158648723
ca7af64c0e6b1a6fc563832581a7c544,moveis_decoracao,32,12,30,11520,1600,"monte siao",MG,-22.42880507067007,-46.569550269431765,"2018-01-02 22:31:47","2017-12-16 22:16:03",17,"rio de janeiro",RJ,-22.93862838995325,-43.36065293880199,333.7980026144977,17.67,0.05293620651291623
5499acc5807b92e82c4789054f71c37a,cama_mesa_banho,45,11,11,5445,1050,"sao paulo",SP,-23.48770416180969,-46.41534043450283,"2017-10-20 20:07:08","2017-10-03 18:49:41",17,"rio de janeiro",RJ,-22.913297402446734,-43.20920670635925,333.5821854845569,2.69,0.008063979783850097
5499acc5807b92e82c4789054f71c37a,cama_mesa_banho,50,16,16,12800,1050,"sao paulo",SP,-23.48770416180969,-46.41534043450283,"2017-10-20 20:07:08","2017-10-03 18:49:41",17,"rio de janeiro",RJ,-22.913297402446734,-43.20920670635925,333.5821854845569,26.86,0.08051988735844372
70ee631a6eb795832e5318331fdf56d3,moveis_escritorio,54,54,18,52488,12650,itaquaquecetuba,SP,-23.482623440635415,-46.37448952833195,"2018-08-17 15:20:09","2018-07-31 14:20:47",17,"rio de janeiro",RJ,-22.932767557851122,-43.17834623036526,332.0510869504457,40.66,0.12245103719858616
fcbb6af360b31b05460c2c8e524588c0,beleza_saude,55,75,61,251625,30000,"sao paulo",SP,-23.58359782304825,-46.50714769338705,"2017-12-18 14:57:29","2017-12-01 14:51:05",17,"rio de janeiro",RJ,-22.863308981966593,-43.374763974608996,329.69357845293695,144.38,0.43792178384999975
4dac5a355ca2b9da23d60ed243be5673,moveis_escritorio,57,55,22,68970,9650,itaquaquecetuba,SP,-23.482623440635415,-46.37448952833195,"2018-05-02 06:11:36","2018-04-14 16:11:37",17,"rio de janeiro",RJ,-22.842139499999995,-43.249983750000006,327.01186851156086,44.89,0.13727330510761876
3e1088f1c96e2b55ef9a070866bd1f1e,moveis_escritorio,57,56,22,70224,13350,itaquaquecetuba,SP,-23.482623440635415,-46.37448952833195,"2018-07-18 08:32:02","2018-06-30 16:53:45",17,"rio de janeiro",RJ,-22.92531913366395,-43.25369631041029,324.6567790944926,45.11,0.13894673669164492
67b0f99f4462dd93418ed97b21a6c725,utilidades_domesticas,35,44,35,53900,1900,"sao paulo",SP,-23.6442788484621,-46.66304850360666,"2017-10-23 11:56:17","2017-10-06 10:48:07",17,curitiba,PR,-25.383237045242065,-49.23195552997861,323.6810878442368,15.11,0.04668175116635575
b0247f256d2486d4cb5f3bf93dd84eb4,moveis_escritorio,57,55,22,68970,11875,itaquaquecetuba,SP,-23.482623440635415,-46.37448952833195,"2018-06-14 03:14:46","2018-05-27 16:42:04",17,"rio de janeiro",RJ,-22.855066576172977,-43.33105776963473,318.6019091636855,51.14,0.1605137901848737
b857ab4fe30b0d1e9eaa0922b8a8d364,automotivo,35,20,20,14000,2550,guaruja,SP,-23.997778323619357,-46.2767638411045,"2018-06-04 20:17:29","2018-05-18 19:56:54",17,"rio de janeiro",RJ,-22.919396236644822,-43.38705153355255,317.96911143691125,27.76,0.08730407766512852
1ac85a0c0cc899fbf1da0f2c83737fb6,moveis_decoracao,30,4,20,2400,900,ibitinga,SP,-21.7664768468313,-48.83154737836604,"2017-09-11 15:04:55","2017-08-25 14:49:25",17,"sao paulo",SP,-23.571105097697494,-46.49189070996592,312.63304690727426,12.85,0.04110250060612197
d2292ff2201e74c5db154d1b7ae68cbb,moveis_decoracao,40,8,35,11200,1800,ibitinga,SP,-21.7664768468313,-48.83154737836604,"2016-10-21 16:38:42","2016-10-04 16:05:29",17,"sao paulo",SP,-23.51489022861713,-46.47171934292568,310.31326144801585,11.74,0.03783273697430009
2beef95c5b98fdfefddc581a17f27b82,cama_mesa_banho,50,11,11,6050,900,"sao paulo",SP,-23.48770416180969,-46.41534043450283,"2017-12-28 14:59:23","2017-12-11 14:52:04",17,"rio de janeiro",RJ,-23.009270961423038,-43.42940927644404,309.42445999168746,15.17,0.049026505533555864
b04d1dd669ddb039cfc706d7bc859e70,moveis_escritorio,52,52,17,45968,8217,itaquaquecetuba,SP,-23.482623440635415,-46.37448952833195,"2018-08-23 21:55:19","2018-08-06 21:43:01",17,jardinopolis,SP,-21.026562514440098,-47.78329414537015,308.9583262264279,24.59,0.07959002206005802
4f3f48cbedce0c316c688af6fc7e9c56,moveis_escritorio,50,60,27,81000,11880,itaquaquecetuba,SP,-23.482623440635415,-46.37448952833195,"2018-02-13 04:30:43","2018-01-26 12:00:35",17,"rio de janeiro",RJ,-22.96308886984238,-43.402024304605,308.9481602895372,22.88,0.07405773181674728
5cca24359ca7443aa609e17be46a0990,brinquedos,16,16,16,4096,200,congonhal,MG,-22.159375877706918,-46.04402732344177,"2017-09-04 02:50:07","2017-08-18 02:37:16",17,"rio de janeiro",RJ,-22.96461688037396,-43.17706729349651,307.46794293601187,15.44,0.05021661722702996
1ff217aa612f6cd7c4255c9bfe931c8b,consoles_games,21,21,21,9261,200,"ribeirao preto",SP,-21.174925033585303,-47.7686162776848,"2016-10-21 16:33:45","2016-10-04 09:16:33",17,"sao paulo",SP,-23.740974,-46.67018849999998,306.6103402720952,11.74,0.038289641469956864
833d8240f42e55ec0f05be5b78efd6de,esporte_lazer,34,12,12,4896,14600,claudio,MG,-20.437733622502854,-44.75914024487753,"2017-06-04 23:42:34","2017-05-18 22:32:31",17,mage,RJ,-22.710520465324244,-43.16559847359304,301.4601889799459,15.1,0.05008953272103369
9a22906fa846451c54fca825591c0577,moveis_escritorio,101,8,57,46056,13867,itaquaquecetuba,SP,-23.482623440635415,-46.37448952833195,"2018-05-07 11:15:16","2018-04-20 11:03:47",17,"rio de janeiro",RJ,-22.915539999999964,-43.54233999999997,296.01555037732504,70.96,0.23971713617594992
ae8fa27148ecbda49deeaf25014dd775,cool_stuff,34,10,27,9180,700,tabatinga,SP,-21.728866463181717,-48.68881488220222,"2017-04-18 18:42:37","2017-04-01 18:26:29",17,"sao paulo",SP,-23.726413791563274,-46.787813649316185,295.3141671602427,12.64,0.04280187476796978
6c92e2d397693207d989d46464700492,moveis_decoracao,30,4,20,2400,850,ibitinga,SP,-21.7664768468313,-48.83154737836604,"2017-11-27 11:47:06","2017-11-10 11:32:33",17,londrina,PR,-23.306545499567303,-51.153471419095155,293.3552863606796,16.11,0.05491634461358502
122c0857cda2681ca041cded5e95741a,moveis_decoracao,25,2,17,850,600,ibitinga,SP,-21.7664768468313,-48.83154737836604,"2017-06-27 03:50:32","2017-06-09 20:35:47",17,carapicuiba,SP,-23.57241932843741,-46.81653106742156,287.99187097490835,11.85,0.04114699473941904
edc9338008f2e9017f842a8bcad3af94,moveis_escritorio,54,64,31,107136,8683,itaquaquecetuba,SP,-23.482623440635415,-46.37448952833195,"2017-05-15 17:10:12","2017-04-28 16:55:22",17,"rio de janeiro",RJ,-22.92801128978522,-43.642049074578836,285.7600288345367,15.04,0.0526315736365935
d7b749382b06fe2551235b118a962dfa,cama_mesa_banho,34,7,32,7616,1500,piracicaba,SP,-22.71683928585045,-47.65736585405934,"2017-03-28 18:46:30","2017-03-11 18:46:30",17,tomazina,PR,-23.777569785567277,-49.95469142163561,262.4752211671988,17.37,0.06617767544973387
1ff554f292eca293a405beea2511f6de,brinquedos,38,12,35,15960,1800,"monte siao",MG,-22.42880507067007,-46.569550269431765,"2017-03-27 08:35:10","2017-03-10 08:35:10",17,"volta redonda",RJ,-22.505694901916865,-44.088639121740684,254.87396028773838,17.21,0.06752357118228507
ac494f2492ac7cf8a41a392e48a51235,moveis_decoracao,34,6,28,5712,1050,"monte siao",MG,-22.42880507067007,-46.569550269431765,"2017-09-13 17:10:25","2017-08-27 17:01:15",17,"sao joaquim da barra",SP,-20.581177442701474,-47.858931261277824,244.76290025544748,17.6,0.07190632232920803
5e5fed142a552be6d6f1e04a800446d6,beleza_saude,21,16,18,6048,400,petropolis,RJ,-22.549033360244323,-43.210094724044055,"2018-02-27 03:11:18","2018-02-10 00:23:51",17,tremembe,SP,-22.960425995702717,-45.55027479123935,244.0969864745248,15.24,0.062434199701152486
9eaeb9a3ef1fbb54f2c06d5ea38dd919,esporte_lazer,16,6,11,1056,150,"sao carlos",SP,-22.000554387183286,-47.88585695697964,"2018-02-26 22:08:42","2018-02-08 22:51:59",17,"sao paulo",SP,-23.530940192076763,-46.55746126879801,217.7982616732564,12.28,0.05638245184170755
d207cc272675637bfed0062edffd0818,moveis_decoracao,40,11,34,14960,2050,ibitinga,SP,-21.7664768468313,-48.83154737836604,"2016-10-21 16:23:06","2016-10-03 22:06:03",17,hortolandia,SP,-22.904356478404523,-47.1755015158131,212.01669220397366,13.56,0.06395722836272914
d137a2977daed67ef57f82efbbe508bb,perfumaria,17,6,12,1224,200,campinas,SP,-22.987222371013935,-47.151072819246686,"2017-09-05 10:25:04","2017-08-19 10:08:37",17,pradopolis,SP,-21.367570681803436,-48.06270442872158,202.93665765801637,11.85,0.058392604553334636
fae07f01dfeea5a98b59ba06f1fa7bba,fashion_calcados,22,12,33,8712,1400,penapolis,SP,-21.426570046543283,-50.06791761043272,"2017-08-14 17:50:15","2017-07-28 17:37:03",17,porecatu,PR,-22.750136335948746,-51.37783569624319,199.5355206397997,17.75,0.08895659250586362
5f73bbecd9ccefd0b80eae3c8b114736,beleza_saude,55,75,61,251625,29050,"sao paulo",SP,-23.58359782304825,-46.50714769338705,"2017-04-17 10:42:27","2017-03-31 10:32:10",17,pirassununga,SP,-22.002685611188898,-47.42592206193028,199.27831291782869,65.47,0.3285354991287797
711b9be9c346d9ecdb9d38a5e1e7e39b,consoles_games,19,7,17,2261,400,"ribeirao preto",SP,-21.174925033585303,-47.7686162776848,"2016-10-21 16:33:27","2016-10-04 13:38:37",17,jaguariuna,SP,-22.689712550377955,-46.98249303136359,186.795657858338,12.87,0.06889881781813335
c65d7f18a62db6a4aee08e5d0d24f84d,esporte_lazer,20,20,20,8000,200,itatiba,SP,-23.005474434298936,-46.84112811740003,"2017-12-11 01:30:48","2017-11-24 01:24:10",17,ubatuba,SP,-23.43162669109582,-45.077228701223355,186.23331810259953,11.85,0.06362986022442883
fb8b96cba85572e4fbdaedd04f44fdb6,perfumaria,16,13,16,3328,650,congonhal,MG,-22.159375877706918,-46.04402732344177,"2017-08-08 10:32:59","2017-07-22 10:23:10",17,carapicuiba,SP,-23.548007803126946,-46.848575058505595,174.90423545590474,13.93,0.07964358303668355
9db84495f43c7c241929f3c0380dc27b,consoles_games,22,13,18,5148,1100,congonhal,MG,-22.159375877706918,-46.04402732344177,"2017-04-10 14:05:31","2017-03-24 13:56:44",17,"sao caetano do sul",SP,-23.632217497085804,-46.567110981678134,172.18416599526296,21.66,0.12579553918213304
722e6f9c78cf4ce9ba1058d788a6740d,moveis_decoracao,51,8,51,20808,5075,uba,MG,-21.120087446232457,-42.91067895264525,"2018-03-13 04:11:24","2018-02-23 21:18:10",17,caratinga,MG,-19.79022694508355,-42.14210229958086,168.03349824935916,19.63,0.11682194446055856
5ab6f6a805ee9808c3f55b95e83c3184,moveis_decoracao,30,6,20,3600,1750,ibitinga,SP,-21.7664768468313,-48.83154737836604,"2018-04-03 03:28:31","2018-03-16 10:22:33",17,birigui,SP,-21.30207124709913,-50.34447517254305,164.66178604735452,17.61,0.10694648966661639
1c7fe02ac4c7be50c59afb295cf85b89,moveis_escritorio,54,64,31,107136,8683,itaquaquecetuba,SP,-23.482623440635415,-46.37448952833195,"2018-02-13 03:47:31","2018-01-26 13:22:09",17,"santa rita do sapucai",MG,-22.243203015748463,-45.71330344759827,153.45049522174497,21.76,0.14180469061735854
ceb7c08202398e1199531a274b1e9922,eletroportateis,35,35,40,49000,7350,limeira,SP,-22.564590914795993,-47.40315315223038,"2017-10-19 18:49:13","2017-10-02 17:32:29",17,"sao bernardo do campo",SP,-23.688917125468194,-46.552552123595405,152.1849552233105,35.51,0.2333344971445696
69102a2e64ac8f2f998f5c2c41c71862,moveis_escritorio,53,73,18,69642,10500,itaquaquecetuba,SP,-23.482623440635415,-46.37448952833195,"2018-05-29 20:10:23","2018-05-12 19:56:50",17,"espirito santo do pinhal",SP,-22.18081673466526,-46.750459320044065,149.68112809093873,27.42,0.18318942641413677
bb04237dd8964e0983c1d0bc623dcfeb,moveis_escritorio,36,54,35,68040,11700,itaquaquecetuba,SP,-23.482623440635415,-46.37448952833195,"2018-08-24 11:15:20","2018-08-06 11:19:54",17,limeira,SP,-22.564590914795993,-47.40315315223038,146.52491692542984,21.49,0.1466644748956711
df413df02c32f319cb51828513261aff,cama_mesa_banho,50,16,16,12800,1500,"sao paulo",SP,-23.48770416180969,-46.41534043450283,"2017-11-03 18:28:19","2017-10-17 18:12:23",17,sarapui,SP,-23.631679713203596,-47.825748459490136,144.53637406658484,14.2,0.09824516556267256
98073f968a57983414bdfe914432f100,cama_mesa_banho,34,7,32,7616,2600,piracicaba,SP,-22.71683928585045,-47.65736585405934,"2017-04-20 06:02:46","2017-04-02 15:16:32",17,"sao paulo",SP,-23.617107882165563,-46.64166179368504,144.12063098856981,13.21,0.09165932670005923
3cdbf328dc0f52112842b474f208831b,eletronicos,18,12,15,3240,150,americana,SP,-22.72893170107914,-47.301322143632056,"2018-09-04 15:49:12","2018-08-18 15:26:25",17,"santo andre",SP,-23.701680965768528,-46.519658793517806,134.36068235188546,7.39,0.05500120921272098
462f5581ea52a4b865cc8e66f70661a1,informatica_acessorios,42,2,30,2520,300,"belo horizonte",MG,-19.878513898894187,-43.95694702879617,"2017-10-15 22:14:51","2017-09-28 21:01:01",17,dionisio,MG,-19.84065643232359,-42.77592393304548,123.49186709337157,12.48,0.10105928668617453
41bdeaa82c72b91de63ad6853ec75046,moveis_decoracao,34,6,28,5712,1050,"monte siao",MG,-22.42880507067007,-46.569550269431765,"2017-12-11 23:53:32","2017-11-24 20:42:43",17,"sao paulo",SP,-23.535964728836067,-46.56487377462638,123.01854681659364,14.08,0.11445428648244109
41198153e6f03c2e9df96d8a5a78a6fa,cama_mesa_banho,40,4,30,4800,900,ibitinga,SP,-21.7664768468313,-48.83154737836604,"2018-03-02 13:27:40","2018-02-12 14:14:29",17,marilia,SP,-22.22301800355925,-49.913698080763886,122.4848891037833,12.79,0.10442104404538292
f3f12fc90564a9b036680a887cd64668,brinquedos,48,27,42,54432,5470,tiete,SP,-23.112239657852275,-47.71121420729847,"2016-10-21 16:36:21","2016-10-04 13:15:52",17,mogi-guacu,SP,-22.33932197651208,-46.954460413369226,115.71543649661237,16.04,0.13861590541093952
2fbb05b3ee700e1897b9fa501e416005,market_place,26,17,24,10608,950,campinas,SP,-22.895876357204664,-47.0791850342778,"2016-10-27 16:29:16","2016-10-10 15:37:12",17,"santo andre",SP,-23.730677044241954,-46.47813835714726,111.19756055510037,11.94,0.10737645628550922
439f6d37b8ba10b7ba975f29ed951beb,pet_shop,85,10,72,61200,19200,"santo antonio de posse",SP,-22.607003040200272,-46.91414970477579,"2018-09-05 11:10:21","2018-08-19 09:49:20",17,boituva,SP,-23.279657630556585,-47.6618565754143,106.95348601643212,60.62,0.5667884447514545
22ae8ab3dfa3ebdf917e692ac6c0348a,moveis_decoracao,34,6,28,5712,1050,"monte siao",MG,-22.42880507067007,-46.569550269431765,"2017-04-28 03:55:39","2017-04-10 20:17:01",17,caieiras,SP,-23.37574543898512,-46.71223339198137,106.22413374724893,15.56,0.14648271961458084
3ac2186857e6d4f16167df65af939568,automotivo,20,10,15,3000,350,guaruja,SP,-23.997778323619357,-46.2767638411045,"2018-03-26 11:30:35","2018-03-09 10:24:47",17,"varzea paulista",SP,-23.184985205666504,-46.82569758226659,106.20784717893609,13.71,0.12908650692167561
2296fa4ebace1edacb9f91509766eb18,utilidades_domesticas,50,10,40,20000,920,indaiatuba,SP,-23.089034640573626,-47.214419237867084,"2018-08-07 20:10:20","2018-07-21 19:57:05",17,"santo andre",SP,-23.66721675288362,-46.49913206319721,97.20577814812886,10.35,0.10647515196296209
0d4381c5179436609adcf581b55639e5,beleza_saude,55,75,61,251625,30000,"sao paulo",SP,-23.58359782304825,-46.50714769338705,"2017-10-24 17:04:58","2017-10-07 15:52:19",17,campinas,SP,-22.909953320849397,-47.08185090507247,95.10368900893044,85.81,0.9022783542281126
6c8accd4cab9d1cccad9d791492d53b2,moveis_escritorio,44,57,27,67716,15925,itaquaquecetuba,SP,-23.482623440635415,-46.37448952833195,"2018-04-03 03:28:16","2018-03-17 03:08:01",17,indaiatuba,SP,-23.09232014212125,-47.19741214338984,94.52199543314767,14.55,0.15393242528709355
3c664925dceff7ac6d1ce0533c40e07e,perfumaria,21,14,17,4998,545,"ribeirao pretp",SP,-21.224269886202343,-47.83392543796527,"2017-11-13 17:35:15","2017-10-27 17:21:53",17,franca,SP,-20.506793628480604,-47.40773763671002,91.17621140923363,12.2,0.1338068319733285
dc15c503e5d31267bef467c8c63476c4,cool_stuff,25,8,22,4400,600,itatiba,SP,-22.995677703232378,-46.857106243157794,"2018-09-11 13:30:23","2018-08-25 13:21:23",17,piracicaba,SP,-22.726257875353635,-47.637811389520564,85.3527307075064,9.26,0.10849096359591485
e9e137d6138cddc86df8040508ba33e8,moveis_escritorio,52,52,18,48672,9183,itaquaquecetuba,SP,-23.482623440635415,-46.37448952833195,"2018-05-29 19:35:22","2018-05-12 19:22:46",17,"sao roque",SP,-23.54575741915263,-47.12353107857869,76.63734385597631,17.79,0.23213226222235134
26dbb32053df6d12465fe5eb115e484a,moveis_decoracao,63,6,11,4158,800,"sao paulo",SP,-23.54195269441404,-46.65931762155928,"2017-06-13 14:25:16","2017-05-27 14:15:33",17,sorocaba,SP,-23.494190060505503,-47.40954169025909,76.61786473731154,14.43,0.1883372768149312
1924766ffdd4d4a99d7a138edd875e38,cool_stuff,19,11,12,2508,800,"rio de janeiro",RJ,-22.906800000000004,-43.176623145421054,"2017-04-10 01:01:52","2017-03-24 01:01:52",17,itaguai,RJ,-22.87358979081365,-43.77293188513139,61.15028834170763,14.78,0.24169959620483558
68931f0c8d94e2097accb925c9d37627,consoles_games,60,16,11,10560,155,santos,SP,-23.93465945090488,-46.331065142884974,"2017-06-11 23:45:08","2017-05-25 23:32:26",17,"sao paulo",SP,-23.5254432897456,-46.73008485760868,60.948079300566604,8.27,0.13568926363070996
c35fad70e651ed7c175cc85284d88d65,moveis_decoracao,55,55,19,57475,9617,itaquaquecetuba,SP,-23.482623440635415,-46.37448952833195,"2018-03-27 04:08:23","2018-03-09 19:11:24",17,guaruja,SP,-23.97955012822438,-46.20319341923938,57.89788427957958,17.98,0.3105467535424519
5ab5ab13fd02495f204ffe2724aecf49,utilidades_domesticas,26,3,21,1638,200,"sao paulo",SP,-23.50126797890817,-46.739648000836716,"2017-08-07 16:10:18","2017-07-21 15:26:07",17,"mogi das cruzes",SP,-23.496930027891654,-46.185351975305366,56.48265728901804,7.78,0.1377413948531184
a85866709015a003ea47e59f00c2354f,informatica_acessorios,60,16,11,10560,100,santos,SP,-23.93465945090488,-46.331065142884974,"2017-08-21 16:05:23","2017-08-04 15:49:23",17,"sao paulo",SP,-23.683248586733214,-46.76706281848348,52.39002641620094,8.27,0.15785447280176612
60762802b48bb6d256d55b013d115013,perfumaria,22,14,16,4928,610,petropolis,RJ,-22.549033360244323,-43.210094724044055,"2016-10-21 16:35:08","2016-10-04 14:49:13",17,"rio de janeiro",RJ,-22.98474248211083,-43.19586486663974,48.43402316201865,14.03,0.28967240555399804
9d92d6b679a62c069b6c7d7ecc1a4b90,beleza_saude,55,75,61,251625,30000,"sao paulo",SP,-23.58359782304825,-46.50714769338705,"2017-12-04 13:55:23","2017-11-17 13:15:06",17,"praia grande",SP,-24.00146687705574,-46.446355136966936,46.83941751376624,85.81,1.8320039948144144
3f265b4152ce33df196725325e99ef49,cama_mesa_banho,50,11,11,6050,900,"sao paulo",SP,-23.48770416180969,-46.41534043450283,"2017-12-19 11:18:29","2017-12-02 11:07:58",17,"sao paulo",SP,-23.64445281409649,-46.70007520249481,33.8268070278856,9.34,0.27611237419779056
553a1f1b74cf15fe6cb4a01a627ab41f,moveis_escritorio,53,52,17,46852,9200,itaquaquecetuba,SP,-23.482623440635415,-46.37448952833195,"2018-02-06 03:52:30","2018-01-19 04:24:00",17,"sao paulo",SP,-23.558694767701493,-46.67321481960865,31.585896245202218,18.27,0.5784227193735288
771596702a2e0245fb67b093182acb03,ferramentas_jardim,30,25,50,37500,3600,"santo andre",SP,-23.687193239224257,-46.498261391639694,"2017-12-14 15:59:50","2017-11-27 15:47:46",17,"sao paulo",SP,-23.46853099777829,-46.67205027407812,30.058228222567482,15.28,0.5083466625796624
b2059ed67ce144a36e2aa97d2c9e9ad2,moveis_escritorio,52,52,17,45968,8267,itaquaquecetuba,SP,-23.482623440635415,-46.37448952833195,"2018-06-05 16:19:10","2018-05-19 16:07:45",17,"sao paulo",SP,-23.527788191788307,-46.66030962184773,29.551818465181007,17.79,0.6019934110302148
0ae310aba8893f64631cffc380d5db8b,casa_construcao,22,18,22,8712,700,salto,SP,-23.190243653067114,-47.291570633360266,"2018-08-28 04:50:30","2018-08-10 16:23:39",17,"monte mor",SP,-22.95001023221123,-47.30583884974829,26.732396274188712,9.17,0.3430294802585293
9147e4f91a0a2071875cf411ec60a10d,moveis_escritorio,37,65,36,86580,12775,itaquaquecetuba,SP,-23.482623440635415,-46.37448952833195,"2018-06-19 15:50:02","2018-06-02 15:35:12",17,"sao paulo",SP,-23.4757673119626,-46.625234338190324,25.565139656445147,25.14,0.9833703370230577
f778c08595fa3873bb689febdda2c509,moveis_escritorio,55,64,26,91520,10075,itaquaquecetuba,SP,-23.482623440635415,-46.37448952833195,"2017-04-04 18:03:20","2017-03-17 23:06:09",17,"santo andre",SP,-23.665703457960582,-46.51808196779969,25.052785822128143,18.88,0.7536088055853667
fcb37577370584bc94c2b97a2e61433c,moveis_escritorio,42,47,33,65142,9675,itaquaquecetuba,SP,-23.482623440635415,-46.37448952833195,"2018-05-07 15:31:12","2018-04-20 14:52:30",17,"santo andre",SP,-23.615718097697492,-46.53118432278263,21.758478354498017,16.69,0.7670573156853941
de12067bfa331f0c8cd1df23a0106128,utilidades_domesticas,26,3,21,1638,200,"sao paulo",SP,-23.50126797890817,-46.739648000836716,"2018-05-21 18:16:20","2018-05-04 18:06:47",17,"sao paulo",SP,-23.684751650008693,-46.66874074701369,21.627773066167933,7.39,0.34169028764038994
69e9d8330e77c15cc54c8a1b341acaaa,moveis_escritorio,52,52,17,45968,8217,itaquaquecetuba,SP,-23.482623440635415,-46.37448952833195,"2017-07-11 03:45:18","2017-06-23 20:19:48",17,"sao paulo",SP,-23.586362748542896,-46.537228262421365,20.191378615773797,18.73,0.9276236336516346
eb30ff356b044cdd6749167b9690434c,moveis_escritorio,55,64,26,91520,10075,itaquaquecetuba,SP,-23.482623440635415,-46.37448952833195,"2018-08-24 08:35:14","2018-08-06 11:34:22",17,"mogi das cruzes",SP,-23.517127104923187,-46.19066721624193,19.118988937973025,23.2,1.2134532885220466
a7fdfd7d7ae7a53a8232d6d0d7db215b,moveis_escritorio,53,65,32,110240,13475,itaquaquecetuba,SP,-23.482623440635415,-46.37448952833195,"2018-07-10 07:13:02","2018-06-22 15:56:33",17,guarulhos,SP,-23.496791311962596,-46.555892863725546,18.552526241348595,26.24,1.414362640356659
ae8e6884dc60226ca8e43dfe17895255,automotivo,17,8,13,1768,75,"belo horizonte",MG,-19.878513898894187,-43.95694702879617,"2018-05-11 15:31:49","2018-04-24 14:26:40",17,"belo horizonte",MG,-19.981843055786786,-44.056511561047486,15.491180324938968,7.71,0.49770255321266976
68b4e818c05f12bec3a76417829c2846,moveis_escritorio,53,52,17,46852,9725,itaquaquecetuba,SP,-23.482623440635415,-46.37448952833195,"2018-06-07 09:14:33","2018-05-21 08:08:19",17,guarulhos,SP,-23.376380280598994,-46.451925193865776,14.20130067351839,17.79,1.252702157991315
ed8c7b1b3eb256c70ce0c74231e1da88,utilidades_domesticas,55,33,40,72600,7600,"sao paulo",SP,-23.571257720785987,-46.696331231750236,"2016-10-21 16:21:45","2016-10-04 09:59:03",17,"sao paulo",SP,-23.454810340706686,-46.73550456694172,13.5401834569721,24.87,1.8367550247034474
2476a3346dc4a10dd9238bc6dac93f89,moveis_decoracao,43,36,25,38700,1650,"sao paulo",SP,-23.63029446211553,-46.62350029239998,"2018-06-15 19:55:53","2018-05-29 19:35:46",17,"sao paulo",SP,-23.53399869525075,-46.68496714377629,12.395898734955063,11.46,0.9244993239323639
77f4d78e39e755553e7b18854b074514,brinquedos,30,10,20,6000,700,guarulhos,SP,-23.46034695920133,-46.54093519386578,"2017-05-18 21:25:13","2017-05-01 21:15:21",17,"sao paulo",SP,-23.524588477378973,-46.634392141554585,11.901469896458472,11.58,0.9729890593972655
a5507507d82c1fb664405882ed065af0,consoles_games,20,20,20,8000,500,"sao paulo",SP,-23.681542547319527,-46.70780575451552,"2017-09-15 11:44:33","2017-08-29 11:34:11",17,"sao paulo",SP,-23.580690704974273,-46.68751888037395,11.39444416477421,16.3,1.4305217318446528
b5dd543f543e5ff34d1600de642c98bb,perfumaria,22,15,17,5610,526,"santo andre",SP,-23.659814137170073,-46.52676210599556,"2017-12-08 12:10:04","2017-11-21 11:44:23",17,"sao paulo",SP,-23.577476982514852,-46.58455889578164,10.877346457392889,9.65,0.8871649016420994
b2b4a30784f90926742019c8128376b8,cama_mesa_banho,50,11,11,6050,900,"sao paulo",SP,-23.48770416180969,-46.41534043450283,"2018-02-26 17:50:50","2018-02-08 18:36:30",17,"sao paulo",SP,-23.537099755756266,-46.502161255756256,10.410134361761031,10,0.9606023949827627
cf30fe76d1505192acee1c6dccb15545,cama_mesa_banho,50,11,11,6050,900,"sao paulo",SP,-23.48770416180969,-46.41534043450283,"2017-10-27 15:29:53","2017-10-10 14:04:45",17,"sao paulo",SP,-23.496590692480787,-46.478140333342886,6.475132250107915,8.72,1.3466906409293296
98974b076b01553d49ee6467905675a7,utilidades_domesticas,16,17,17,4624,1700,"sao paulo",SP,-23.571257720785987,-46.696331231750236,"2016-10-21 16:20:21","2016-10-04 15:44:44",17,"sao paulo",SP,-23.603000395781635,-46.64456275965141,6.342549362145301,11.23,1.7705814111632818
9b1685c1d2c17bf27e16d9c7e6b1cba8,cama_mesa_banho,50,11,11,6050,900,"sao paulo",SP,-23.48770416180969,-46.41534043450283,"2017-10-26 22:56:25","2017-10-09 21:45:11",17,"sao paulo",SP,-23.525436666945577,-46.413071696087485,4.198864375119168,8.72,2.076752002677514
79ffdd52a918bbe867895a4b183d6457,climatizacao,29,50,25,36250,8600,"belo horizonte",MG,-19.91953334886612,-43.93684688980902,"2016-10-21 16:35:09","2016-10-04 12:06:11",17,"belo horizonte",MG,-19.944623503750908,-43.945072637803655,2.917198573390597,19.01,6.516525879794699
