orderID,categoryName,lenghtCM,heightCM,widthCM,Volume,weightG,sellerCity,sellerState,sellerLat,sellerLng,shippingLimit,purchaseTime,timeLapse,customerCity,customerState,customerLat,customerLng,distance_in_km,freightValue,cost_per_KM
a601d022409232a8c75200e448dfb843,perfumaria,16,16,16,4096,1000,suzano,SP,-23.54646763188849,-46.317438806098934,"2017-09-04 13:44:11","2017-08-09 13:27:11",26,belem,PA,-1.4490947274224149,-48.484601999451726,2466.3303678533516,19.11,0.007748353687358191
a03bcd3a3d6e8009b9253928c9db4d4f,esporte_lazer,42,36,25,37800,800,"ponte nova",MG,-20.415339248383304,-42.89153741877715,"2017-11-06 15:14:16","2017-10-11 13:56:49",26,"sao luis",MA,-2.565507949521447,-44.318228971661675,1989.331728014036,35.81,0.018001019888095476
ed657707e074ec97427d985ed5c4d21f,moveis_escritorio,52,51,17,45084,12000,itaquaquecetuba,SP,-23.43567309991361,-46.38032799842931,"2018-07-11 18:22:01","2018-06-15 18:01:49",26,colider,MT,-10.813165052599908,-55.457304810347,1700.2902940863264,14.88,0.008751446768680149
d168723fbc108ab922a23516046a4b42,cama_mesa_banho,35,35,35,42875,5600,"belo horizonte",MG,-19.878513898894187,-43.95694702879617,"2017-06-21 23:45:19","2017-05-26 23:43:10",26,"santa terezinha",PE,-7.372442425991287,-37.47819553918402,1554.993978253223,35.62,0.022906841118454452
f75d04d7bf218d0026ebdbd703d70fa0,informatica_acessorios,16,3,11,528,250,"sao paulo",SP,-23.55860361532686,-46.431162329245254,"2018-07-29 21:31:38","2018-07-03 20:43:12",26,alagoinhas,BA,-12.129450609759333,-38.4441820751171,1524.1538411201689,25.75,0.01689462002147708
bfd0c2d2890d1ef6f525a21ac63bf5e9,moveis_escritorio,52,51,17,45084,9350,itaquaquecetuba,SP,-23.43567309991361,-46.38032799842931,"2018-07-16 13:57:44","2018-06-20 13:27:43",26,salvador,BA,-12.9668746207144,-38.462215490099865,1431.3822685708801,39.91,0.027882139437040054
c43c85be1846e97fe6554a68837c9f75,moveis_decoracao,62,6,62,23064,6200,uba,MG,-21.120087446232457,-42.91067895264525,"2018-01-11 10:10:46","2017-12-15 23:17:43",26,maringa,PR,-23.435118221374,-51.92885489694695,962.0193010083652,35.71,0.03711983736975926
a0224d0bc0030c9226e9613d6561a7aa,cama_mesa_banho,50,11,11,6050,400,"sao paulo",SP,-23.48770416180969,-46.41534043450283,"2018-06-04 23:31:18","2018-05-09 23:19:02",26,brasilia,DF,-15.755465331897769,-47.884680440018094,872.7625125552711,15.29,0.017519084264096072
3a2c2f3f6c91d518c900476c6f7ef027,bebes,40,40,40,64000,10700,"sao jose do rio preto",SP,-20.81842802837701,-49.39248776604019,"2018-02-01 20:46:37","2018-01-06 20:29:02",26,blumenau,SC,-26.985960471002322,-49.08572167055226,685.9877597927699,57.93,0.08444757092677584
67d96fe2be34f84e637cb249cb019726,moveis_sala,74,5,46,17020,8400,"bady bassitt",SP,-20.9245222402303,-49.45780155372428,"2017-06-29 02:22:44","2017-06-02 19:52:43",26,"duque de caxias",RJ,-22.76533474882392,-43.30808280493542,666.3223502219884,15.31,0.02297686696971729
4d47d3a70d758db37a0cfd7fcc946ffd,cool_stuff,32,4,29,3712,600,tabatinga,SP,-21.728866463181717,-48.68881488220222,"2017-09-15 17:25:11","2017-08-20 17:12:07",26,pirapora,MG,-17.34199668040074,-44.94194241063118,625.6347600316815,15.91,0.025430172708425496
6105321bd9c6d494502e32dd1d28c53d,perfumaria,16,16,16,4096,500,suzano,SP,-23.54646763188849,-46.317438806098934,"2018-04-30 19:48:45","2018-04-04 19:28:46",26,caratinga,MG,-19.79022694508355,-42.14210229958086,599.970218285406,19.38,0.0323016033285521
ef2ad8ca843fcd41ef3395b5f31e5930,bebes,40,40,40,64000,10700,"sao jose do rio preto",SP,-20.81842802837701,-49.39248776604019,"2018-04-11 21:28:28","2018-03-16 21:24:33",26,congonhas,MG,-20.50410692238407,-43.858586415220174,576.360312826004,89.36,0.15504190349583746
d773b2a09676fb3a1a35c45a9edda446,moveis_escritorio,63,58,26,95004,16200,itaquaquecetuba,SP,-23.43567309991361,-46.38032799842931,"2018-07-09 23:59:39","2018-06-13 23:41:31",26,curvelo,MG,-18.744756956577486,-44.45041862816433,558.2630506644799,119.51,0.21407470879140517
7ecd6da80b57a803fc59819f59bcdc4b,esporte_lazer,42,36,25,37800,800,"ponte nova",MG,-20.415339248383304,-42.89153741877715,"2017-11-22 11:55:22","2017-10-27 11:43:49",26,salto,SP,-23.198860047870664,-47.29334560811024,549.3429216454451,16.25,0.02958079436306638
310665e6326967af1b7df9e9ce885ff6,esporte_lazer,42,36,25,37800,800,"ponte nova",MG,-20.415339248383304,-42.89153741877715,"2017-11-27 02:26:47","2017-10-31 10:19:44",26,"itapecerica da serra",SP,-23.71935075300354,-46.825705278684644,546.6310403562877,8.12,0.014854626613789583
f329e0268c6dd7c8492893d6049b7075,esporte_lazer,42,36,25,37800,800,"ponte nova",MG,-20.415339248383304,-42.89153741877715,"2017-11-06 11:35:24","2017-10-11 10:24:12",26,"sao caetano do sul",SP,-23.625773999999993,-46.56855299278663,520.2266957054519,16.25,0.031236382396647742
7837962c3d0968b066e6e54738c2f307,utilidades_domesticas,51,24,28,34272,7300,"sao jose do rio preto",SP,-20.817017187453597,-49.36425413438004,"2018-02-08 20:50:25","2018-01-13 20:42:27",26,curitiba,PR,-25.480153508742575,-49.29687243020366,518.171431241822,44.45,0.08578242126061159
a0f7769c320fd4c1900add6490eab094,relogios_presentes,17,12,14,2856,4338,campinas,SP,-22.90081444463038,-46.99864279239999,"2018-06-27 15:35:28","2018-05-31 15:39:15",26,"belo horizonte",MG,-19.8888197529863,-43.96214189731085,458.9641309705325,16.84,0.03669132044020495
1faf2c3bb6bc67c10fdb7a7fcf3814de,relogios_presentes,17,12,14,2856,4338,campinas,SP,-22.90081444463038,-46.99864279239999,"2018-06-29 03:49:59","2018-06-02 09:22:04",26,betim,MG,-19.919812054677124,-44.27652976103638,434.7063973530651,16.84,0.03873879037101606
b819d4bf7ee713f4efbbf5328a3eeeaa,utilidades_domesticas,31,25,27,20925,1450,"rio negrinho",SC,-26.261841794823777,-49.5235885039339,"2018-08-09 13:55:12","2018-07-14 13:41:00",26,guarulhos,SP,-23.483928635581975,-46.54665783166945,430.4526933102479,23.68,0.05501185233131457
48e7e805cf628681fb4e33aeba527ed7,bebes,40,40,40,64000,10700,"sao jose do rio preto",SP,-20.81842802837701,-49.39248776604019,"2018-02-20 19:14:30","2018-01-24 20:03:41",26,"sao paulo",SP,-23.525377438801993,-46.40950968151651,429.7005686559745,32.29,0.0751453508683902
daf7a55aa310de14e9b2409edfedc2b4,utilidades_domesticas,34,52,34,60112,10000,"sao jose do rio preto",SP,-20.817017187453597,-49.36425413438004,"2018-08-16 16:55:24","2018-07-21 16:42:24",26,"carmo do paranaiba",MG,-18.997588351779083,-46.29733006798912,378.83160909454443,67.81,0.178997735067764
4cd88e929bc2c3be1b5e48b3a4c1e287,perfumaria,25,16,16,6400,700,suzano,SP,-23.54646763188849,-46.317438806098934,"2017-12-11 23:50:29","2017-11-15 23:41:10",26,curitiba,PR,-25.39986976934627,-49.259987151537906,361.8611189246419,7.08,0.019565517348312904
346c08d9fdf400dec430232945c32e7a,perfumaria,20,16,16,5120,550,suzano,SP,-23.54646763188849,-46.317438806098934,"2018-03-26 20:30:31","2018-02-28 20:19:44",26,colombo,PR,-25.362961044442496,-49.20591884640265,355.0678005804229,15.17,0.04272423456929036
7686c8e556ad063dbfec8224d665c37d,bebes,16,11,11,1936,200,curitiba,PR,-25.480153508742575,-49.29687243020366,"2017-04-13 01:58:41","2017-03-18 01:58:41",26,"sao paulo",SP,-23.6270649708581,-46.63218002262104,338.9777510197028,14.46,0.042657666930947115
5944fb964cf73639af7fcd817b6fd31b,beleza_saude,40,16,30,19200,1000,suzano,SP,-23.54646763188849,-46.317438806098934,"2017-06-27 21:05:10","2017-05-31 22:59:52",26,"rio de janeiro",RJ,-22.860462154979487,-43.51125669202714,296.53352650326303,15.92,0.05368701538652095
903f37040518ff60300da0229eaf9e57,esporte_lazer,16,16,16,4096,200,jau,SP,-22.27568678711987,-48.542599749927895,"2018-02-19 23:35:35","2018-01-24 00:24:19",26,"sao paulo",SP,-23.533167059668795,-46.512914542876146,250.34758085612864,12.26,0.04897191320193206
e0353eeedba2f065dcb285de34e49f03,moveis_escritorio,58,55,24,76560,13550,"lencois paulista",SP,-22.59942838136111,-48.779995856226165,"2018-07-09 09:57:10","2018-06-13 09:32:06",26,"sao paulo",SP,-23.513707394631975,-46.65262935449776,240.04203005908883,30.05,0.12518641003245506
26e388ebc7a8a0fa0998ad6cc4755bec,malas_acessorios,29,35,21,21315,3250,"belo horizonte",MG,-19.84506185844542,-43.984663464481436,"2018-08-07 09:46:04","2018-07-12 09:28:43",26,"juiz de fora",MG,-21.715399781621308,-43.403467516394976,216.40694096563433,20.32,0.09389717311898438
9b441adcb57c2e78cb12352908df3ea8,bebidas,28,15,15,6300,2500,congonhal,MG,-22.159375877706918,-46.04402732344177,"2018-03-06 18:49:35","2018-02-07 19:34:43",26,"sao paulo",SP,-23.55686668942237,-46.54789016166545,163.62139424084708,20.84,0.12736720706171212
64b0d9816689f0f4dd0f06127d5d0dfb,relogios_presentes,17,12,14,2856,4338,campinas,SP,-22.90081444463038,-46.99864279239999,"2018-06-29 03:50:01","2018-06-02 07:16:53",26,suzano,SP,-23.54981766773588,-46.31698283355356,100.22179987759247,9.23,0.09209573177964486
7d211ad04e2a788e75109de959ce3171,relogios_presentes,17,12,14,2856,4338,campinas,SP,-22.90081444463038,-46.99864279239999,"2018-06-24 22:13:54","2018-05-29 21:55:48",26,osasco,SP,-23.548613802411975,-46.76471317525546,75.83736513945547,9.23,0.1217078149145501
c2ed9a4ca7d4dca13950ec7e2505eada,moveis_escritorio,52,51,17,45084,12000,itaquaquecetuba,SP,-23.43567309991361,-46.38032799842931,"2018-08-14 02:55:28","2018-07-18 10:24:54",26,santos,SP,-23.961812938897538,-46.34427982528125,58.57485544321052,18.61,0.3177131186954915
45fb3f449f9ca45f89ba2d2b062e495b,,20,16,14,4480,2200,jundiai,SP,-23.17589664637174,-46.886594495206815,"2018-03-06 21:00:27","2018-02-07 21:15:58",26,"sao paulo",SP,-23.53569581346678,-46.64141313885349,47.1562857579336,9.63,0.20421455687654202
5bfce111a3fc0a622ab552626165ab2f,moveis_decoracao,101,8,57,46056,17033,itaquaquecetuba,SP,-23.43567309991361,-46.38032799842931,"2018-08-13 10:10:10","2018-07-17 18:18:33",26,"sao paulo",SP,-23.55327788980902,-46.689386501240755,34.09630693148903,57.31,1.680827196773982
30b2ad103e6982881929c367f930ab29,cama_mesa_banho,60,30,60,108000,7550,"sao paulo",SP,-23.53435725950717,-46.64935629739165,"2018-09-04 16:05:18","2018-08-09 12:16:52",26,"santana de parnaiba",SP,-23.463669949766263,-46.867870523601965,23.610421573528242,40.93,1.7335565090413416
191abde9c3bf77d1ce67d100d8db6d15,cama_mesa_banho,47,21,41,40467,3100,"santo andre",SP,-23.624784000000005,-46.53954225000001,"2017-08-24 10:55:17","2017-07-29 10:47:21",26,"sao paulo",SP,-23.645072322554213,-46.712876567528674,17.787268972693237,13.5,0.7589698014194877
9cdc72b55b79350079c72ed8a2e8ee17,cama_mesa_banho,45,11,11,5445,1400,"sao paulo",SP,-23.48770416180969,-46.41534043450283,"2018-06-04 16:16:28","2018-05-09 15:45:12",26,"sao paulo",SP,-23.549660117981258,-46.57027590146579,17.22076898869007,8.29,0.4813954594852615
df8f138cbe59c7bb4454c61d1223ca18,relogios_presentes,17,12,14,2856,4338,campinas,SP,-22.90081444463038,-46.99864279239999,"2018-06-27 15:31:38","2018-06-01 15:10:00",26,vinhedo,SP,-23.028817866450463,-46.98774817623808,14.26619379485805,9.23,0.6469840612516254
