orderID,categoryName,lenghtCM,heightCM,widthCM,Volume,weightG,sellerCity,sellerState,sellerLat,sellerLng,shippingLimit,purchaseTime,timeLapse,customerCity,customerState,customerLat,customerLng,distance_in_km,freightValue,cost_per_KM
947ee6ab639791b5711558a7e55cf98e,cool_stuff,24,25,31,18600,12000,"sao paulo",SP,-23.528716250620374,-46.62026515958797,"2018-07-16 09:01:12","2018-06-11 22:04:34",34,sobral,CE,-3.6710618925217733,-40.35011889432007,2306.796023776998,83.13,0.03603699639809866
4ce91fec2f80a813034eabe864e5f910,moveis_escritorio,52,51,17,45084,9350,itaquaquecetuba,SP,-23.43567309991361,-46.38032799842931,"2018-04-18 19:10:33","2018-03-15 18:58:28",34,paulista,PE,-7.91241779589001,-34.82458363477629,2119.2525229525904,39.48,0.018629209861690088
9ddba77d69c77e988ac02c012a59d058,relogios_presentes,23,16,21,7728,450,"vitoria de santo antao",PE,-8.117220896762579,-35.29341473604942,"2018-04-04 09:09:14","2018-03-01 08:17:59",34,itatiba,SP,-23.005474434298936,-46.84112811740003,2062.3642225343656,9.56,0.004635456674210561
1399414876559adb251d9ea3e3b570df,esporte_lazer,52,52,17,45968,8809,itaquaquecetuba,SP,-23.482623440635415,-46.37448952833195,"2018-02-07 03:31:47","2018-01-03 17:46:17",34,palmas,TO,-10.307003644868773,-48.32064264386908,1478.4236714759138,47.47,0.032108522689311775
c2412bd3e8f3094b54d02284ae238108,esporte_lazer,25,12,18,5400,300,curitibanos,SC,-27.288614821408185,-50.57696646191445,"2017-06-25 21:30:22","2017-05-22 21:19:41",34,jatai,GO,-17.876500006057867,-51.71943343997603,1052.3147202649686,35.56,0.03379217197593334
c9397dbfd867734646abb1df12a5f625,moveis_decoracao,47,37,38,66082,7500,"sao paulo",SP,-23.5706181335045,-46.50933181986844,"2017-12-29 19:13:53","2017-11-25 18:54:57",34,"porto alegre",RS,-30.04307239410819,-51.21141662640671,856.8549721075938,39.28,0.04584206345139546
5920911a4b7ec5909428e9189952b130,moveis_escritorio,50,60,27,81000,11880,itaquaquecetuba,SP,-23.482623440635415,-46.37448952833195,"2018-02-06 19:31:39","2018-01-03 18:43:43",34,"aparecida de goiania",GO,-16.828614353715302,-49.24429802991069,797.5430109681969,22.88,0.02868810795824574
47f5956f0545ab50be4333cf70997aec,beleza_saude,50,10,15,7500,650,suzano,SP,-23.54646763188849,-46.317438806098934,"2017-11-20 04:25:07","2017-10-16 19:39:16",34,canapolis,MG,-18.71875676326473,-49.20007306774835,613.931223907339,16.31,0.02656649371275776
22f11cab9bb8aa2ae260c43ab69d82f0,beleza_saude,30,20,20,12000,650,curitibanos,SC,-27.288614821408185,-50.57696646191445,"2018-04-17 17:15:37","2018-03-14 16:14:52",34,"sao paulo",SP,-23.625482259507177,-46.7214808148768,561.4036484116034,19.95,0.035535928661035866
db6fc36ce2a94f3e7af05707163314d4,utilidades_domesticas,51,8,35,14280,3500,"sao jose do rio preto",SP,-20.817017187453597,-49.36425413438004,"2018-02-12 07:16:05","2018-01-09 06:05:58",34,"sao jose do barreiro",SP,-22.645508973312598,-44.5834815133437,533.5859594235982,17.18,0.03219724900287585
9021cf1919f615a121410790dcce848f,perfumaria,20,16,17,5440,523,congonhal,MG,-22.159375877706918,-46.04402732344177,"2018-08-08 02:55:16","2018-07-04 16:05:56",34,buenopolis,MG,-17.874877407388087,-44.16972609736124,514.6761785131039,14.87,0.028891953078068102
e98fdad1f9ba500a9aecfaa90e1662cd,moveis_escritorio,53,52,17,46852,9200,itaquaquecetuba,SP,-23.482623440635415,-46.37448952833195,"2018-02-06 17:26:56","2018-01-03 16:56:47",34,birigui,SP,-21.301705697260985,-50.33198634467411,473.26190362837735,21.56,0.045556170557370074
eab346b68385f2b894d7d95be157085f,moveis_escritorio,63,58,26,95004,16200,itaquaquecetuba,SP,-23.43567309991361,-46.38032799842931,"2018-04-01 21:15:37","2018-02-26 20:55:59",34,"belo horizonte",MG,-19.935201059120523,-43.9567957307693,462.4464125669552,53.48,0.11564583170435322
5f81f8debb479300dc3ae13616afb823,eletroportateis,30,25,31,23250,2007,"sao jose do rio preto",SP,-20.817017187453597,-49.36425413438004,"2017-08-30 10:15:17","2017-07-26 14:52:33",34,"sao paulo",SP,-23.49708599639332,-46.72484557299898,403.0214429221371,13.78,0.03419172910524829
8bda067505e4a3f51647bbb470bf481a,moveis_decoracao,42,30,42,52920,16600,"sao paulo",SP,-23.5706181335045,-46.50933181986844,"2017-06-19 06:35:25","2017-05-15 17:04:10",34,barbacena,MG,-21.232267920465752,-43.77002363272546,382.9764768973864,26.67,0.06963874182576985
f939e2a89376e44158657a15465cacce,moveis_escritorio,50,60,27,81000,11880,itaquaquecetuba,SP,-23.482623440635415,-46.37448952833195,"2018-02-12 07:25:32","2018-01-08 16:02:04",34,"rio de janeiro",RJ,-22.987106811270106,-43.22749700083673,325.98133969782566,22.88,0.0701880666580763
7ea643d8802c6875dc51108bd2386c8d,fashion_bolsas_e_acessorios,20,18,20,7200,1000,congonhal,MG,-22.159375877706918,-46.04402732344177,"2017-08-09 20:30:21","2017-07-06 20:19:20",34,"rio de janeiro",RJ,-22.805776179896323,-43.203935179544835,300.2900420794965,20.04,0.06673547967566225
523dafc7e66222e30a400621133aca08,cama_mesa_banho,25,10,25,6250,3350,"sao paulo",SP,-23.64645316564389,-46.66995830987091,"2018-07-17 16:32:10","2018-06-13 16:17:47",34,"ribeirao preto",SP,-21.197994153181128,-47.779317275572765,294.94337887898547,19.14,0.0648938113910097
559eea5a72341a4c82dbce9884277cb7,moveis_decoracao,85,7,85,50575,18950,uba,MG,-21.120087446232457,-42.91067895264525,"2017-12-21 10:51:09","2017-11-17 10:24:03",34,vitoria,ES,-20.28599942388992,-40.30067364294738,286.66152110231843,60.83,0.212201483359491
90bf73869f0ae6e4ea3731dcf7e2e620,moveis_cozinha_area_de_servico_jantar_e_jardim,64,12,37,28416,11850,"ribeirao pires",SP,-23.657379641968312,-46.37402022795534,"2018-06-18 04:12:22","2018-05-14 18:13:58",34,mangaratiba,RJ,-22.929835186822586,-43.90887910153451,264.241749708033,19.21,0.07269858007383612
e6b945a54e2461068b09cdc3d465304d,esporte_lazer,20,20,20,8000,600,jau,SP,-22.27568678711987,-48.542599749927895,"2018-06-11 23:11:41","2018-05-08 22:49:39",34,osasco,SP,-23.503140623952998,-46.79416267507853,225.0103154810228,14.18,0.06301933300118381
c5b31150f4307952a53f840287f03759,esporte_lazer,17,17,17,4913,500,jau,SP,-22.27568678711987,-48.542599749927895,"2018-03-20 14:20:34","2018-02-13 15:26:25",34,itapira,SP,-22.433272354448736,-46.81770035287661,178.11378565030387,13.59,0.07629954048970501
a328c24c32a2e3815402210e8bb95c5d,moveis_escritorio,63,58,26,95004,16750,itaquaquecetuba,SP,-23.43567309991361,-46.38032799842931,"2018-03-15 19:07:57","2018-02-08 20:01:54",34,itajuba,MG,-22.43042833808398,-45.436614377894095,147.65058561204657,36.98,0.25045616884422883
0359008adff4c1def5a09bb92f7a5aa8,moveis_escritorio,54,40,52,112320,12100,itaquaquecetuba,SP,-23.43567309991361,-46.38032799842931,"2018-04-19 02:40:38","2018-03-15 13:17:11",34,"capela do alto",SP,-23.47287828227706,-47.73499742631303,138.14387416554777,70.54,0.5106270576679125
510489aaadbd8f7064bc8f433b222de9,perfumaria,16,11,11,1936,450,"mogi mirim",SP,-22.410052544109128,-46.97276509151268,"2018-07-18 17:58:02","2018-06-14 17:31:53",34,"sao paulo",SP,-23.558837165416367,-46.594341639188656,133.38267819945153,10.82,0.08111997859137673
ab46b23c27822b224f0e2fcca0f25e63,moveis_escritorio,62,16,49,48608,24700,itaquaquecetuba,SP,-23.43567309991361,-46.38032799842931,"2018-02-13 21:29:03","2018-01-10 21:12:16",34,taubate,SP,-23.036951634709904,-45.56997640165054,93.84988594388128,59.52,0.6342042869992484
316af200f0fadf8a73193434b9b050ed,beleza_saude,11,11,11,1331,100,guarulhos,SP,-23.446349958364614,-46.543655493479115,"2018-08-01 12:50:24","2018-06-28 12:41:32",34,campinas,SP,-22.880931665862516,-47.068424969313,82.5867512401822,7.65,0.09262986962342125
020d1063c6e7cb975472aedbfe0e25ea,moveis_escritorio,52,52,17,45968,8267,itaquaquecetuba,SP,-23.482623440635415,-46.37448952833195,"2018-02-08 00:28:10","2018-01-05 00:16:05",34,"sao vicente",SP,-23.96321067145893,-46.371198340866556,53.399577274342874,17.71,0.33165056549069727
f019a5199ecd85292da1320f0389a05f,moveis_quarto,59,9,37,19647,9000,"ribeirao pires",SP,-23.657379641968312,-46.37402022795534,"2018-08-01 09:10:35","2018-06-28 00:15:39",34,"sao paulo",SP,-23.524588477378973,-46.634392141554585,30.34142031830628,18.4,0.6064317295291047
3e97445a80fbe4c15f6f1aa9bf95c90e,moveis_sala,30,16,30,14400,4600,itaquaquecetuba,SP,-23.43567309991361,-46.38032799842931,"2018-02-08 02:35:37","2018-01-04 12:56:06",34,"sao paulo",SP,-23.582023554532892,-46.62322245045877,29.612439985910335,15.28,0.5159993572724928
62b7574be0b7a8465822312be8cb07b8,eletroportateis,30,40,31,37200,4683,"sao jose do rio preto",SP,-20.817017187453597,-49.36425413438004,"2017-08-23 02:16:02","2017-07-19 16:44:13",34,"sao jose do rio preto",SP,-20.81842802837701,-49.39248776604019,2.936453332105923,16.44,5.598590592348969
